# Blender v2.77 (sub 0) OBJ File: 'RobotMerged.blend'
# www.blender.org
mtllib Robot.mtl
o Cylinder
v -1.061327 1.541496 -0.568174
v -1.061327 1.238417 0.148665
v -1.233330 1.623964 -0.560420
v -1.233330 1.320885 0.156419
v -1.275811 1.809270 -0.542998
v -1.275811 1.506191 0.173841
v -1.156782 1.957873 -0.529027
v -1.156782 1.654794 0.187812
v -0.965873 1.957873 -0.529027
v -0.965873 1.654794 0.187812
v -0.846843 1.809270 -0.542998
v -0.846843 1.506191 0.173841
v -0.889324 1.623964 -0.560420
v -0.889324 1.320885 0.156419
v -1.260255 1.297395 0.154409
v -1.061327 1.202017 0.145441
v -1.309386 1.511707 0.174558
v -1.171723 1.683572 0.190717
v -0.950931 1.683572 0.190717
v -0.813269 1.511707 0.174558
v -0.862400 1.297395 0.154409
v -1.260255 1.286211 0.273359
v -1.061327 1.190833 0.264392
v -1.309386 1.500523 0.293509
v -1.171724 1.672388 0.309667
v -0.950931 1.672388 0.309667
v -0.813269 1.500523 0.293509
v -0.862400 1.286211 0.273359
v -1.226019 1.316444 0.281178
v -1.061327 1.237337 0.276932
v -1.266695 1.494349 0.290718
v -1.152724 1.637172 0.298369
v -0.969930 1.637172 0.298369
v -0.855960 1.494349 0.290718
v -0.896635 1.316444 0.281178
v -1.099663 1.518938 1.227945
v -0.932253 1.439740 1.198830
v -1.141488 1.696894 1.244295
v -1.024125 1.839603 1.235323
v -0.842481 1.839603 1.212042
v -0.733042 1.696894 1.193238
v -0.772292 1.518938 1.186163
v -1.129369 1.494656 1.230803
v -0.933265 1.400795 1.197425
v -1.175750 1.705560 1.248424
v -1.041781 1.874692 1.240591
v -0.826351 1.874692 1.212276
v -0.691845 1.705560 1.184048
v -0.741294 1.494656 1.179182
v -1.129753 1.548766 1.408989
v -0.884614 1.428913 1.363539
v -1.188280 1.715105 1.432905
v -1.016125 1.799425 1.417279
v -0.742923 1.799425 1.373877
v -0.574401 1.715105 1.335382
v -0.637459 1.548766 1.330781
v -0.897420 1.527319 1.343643
v -0.857160 1.608178 1.343643
v -0.897420 1.527319 1.818278
v -0.857160 1.608178 1.818278
v -1.087826 1.622121 1.343643
v -1.047566 1.702981 1.343643
v -1.087826 1.622121 1.818279
v -1.047566 1.702981 1.818278
v -0.589448 1.606215 1.330719
v -0.617958 1.691837 1.334596
v -0.525499 1.606215 1.801026
v -0.554009 1.691837 1.804903
v -0.789231 1.538462 1.357884
v -0.817742 1.624085 1.361761
v -0.725282 1.538462 1.828192
v -0.753793 1.624085 1.832068
v -1.034191 1.864110 1.317580
v -1.120581 1.890060 1.320898
v -0.990990 1.925496 1.544077
v -1.077380 1.951446 1.547395
v -1.092980 1.662375 1.340537
v -1.179370 1.688326 1.343856
v -1.049779 1.723761 1.567035
v -1.136169 1.749711 1.570353
v 0.805553 3.731132 0.321170
v 0.891940 3.695545 0.203555
v 0.905481 3.646933 0.062077
v 0.842547 3.598320 -0.065355
v 0.720003 3.562733 -0.144594
v 0.741807 3.612743 0.375683
v 0.781529 3.490489 0.297973
v 0.777989 3.410154 0.171102
v 0.732136 3.393264 0.029064
v 0.656257 3.444344 -0.090082
v 0.669467 3.744158 0.383408
v 0.599104 3.612743 0.401894
v 0.534360 3.490489 0.343373
v 0.492583 3.410154 0.223525
v 0.484968 3.393264 0.074463
v 0.513554 3.444344 -0.063870
v 0.520147 3.731132 0.373593
v 0.397603 3.695545 0.294353
v 0.334669 3.646933 0.166922
v 0.348210 3.598320 0.025444
v 0.434597 3.562733 -0.092172
v 0.570682 3.549707 -0.154410
v 0.583893 3.849521 0.319080
v 0.508014 3.900601 0.199934
v 0.462161 3.883710 0.057896
v 0.458621 3.803376 -0.068975
v 0.498343 3.681122 -0.146684
v 0.726596 3.849521 0.292869
v 0.755182 3.900601 0.154535
v 0.747567 3.883710 0.005474
v 0.705790 3.803375 -0.114374
v 0.641046 3.681122 -0.172896
v -0.322101 3.632374 0.299859
v -0.235029 3.613493 0.247133
v -0.187468 3.587702 0.158869
v -0.192161 3.561911 0.058715
v -0.247851 3.543030 -0.026491
v -0.375811 3.548702 0.310546
v -0.328057 3.468568 0.265644
v -0.294887 3.420357 0.180243
v -0.285188 3.416985 0.077226
v -0.301560 3.459357 -0.015804
v -0.425353 3.639285 0.302917
v -0.473319 3.548702 0.288361
v -0.496946 3.468568 0.227219
v -0.489903 3.420357 0.135873
v -0.454077 3.416986 0.038800
v -0.399068 3.459357 -0.037989
v -0.517118 3.632374 0.255489
v -0.572807 3.613493 0.170283
v -0.577500 3.587702 0.070129
v -0.529939 3.561911 -0.018135
v -0.442867 3.543030 -0.070861
v -0.339616 3.536119 -0.073919
v -0.463408 3.716047 0.244802
v -0.479780 3.758419 0.151772
v -0.470082 3.755047 0.048755
v -0.436912 3.706836 -0.036646
v -0.389158 3.626702 -0.081548
v -0.365900 3.716047 0.266987
v -0.310891 3.758419 0.190198
v -0.275066 3.755047 0.093125
v -0.268023 3.706836 0.001779
v -0.291650 3.626703 -0.059363
v 0.126986 4.377407 -1.192927
v -0.140746 4.628617 -1.321623
v 0.229249 4.662633 -1.436930
v 0.457923 4.573579 -1.135055
v 0.229249 4.484524 -0.833180
v -0.140746 4.518540 -0.948488
v 0.024724 4.980049 -1.343291
v 0.394718 4.946033 -1.227983
v 0.394718 4.835956 -0.854849
v 0.024724 4.801939 -0.739541
v -0.203951 4.890994 -1.041416
v 0.126986 5.087166 -0.983544
v 0.649723 3.809247 -0.785563
v 0.691942 3.809247 -0.323793
v 0.488762 3.809247 0.000766
v 0.019075 3.809247 0.066734
v 0.025518 3.668201 0.027831
v 0.460187 3.668201 -0.033219
v 0.648219 3.668201 -0.333580
v 0.609147 3.668201 -0.760923
v 0.206223 3.668201 -1.014888
v -0.316357 3.668201 -0.902557
v -0.438455 3.668201 -0.484982
v -0.350544 3.668201 -0.138223
v 0.214339 3.809247 -1.059988
v -0.350342 3.809247 -0.938608
v -0.482276 3.809247 -0.487392
v -0.387283 3.809247 -0.112697
v -0.323892 3.915157 -0.910551
v -0.448171 3.915157 -0.485516
v 0.208023 3.915157 -1.024888
v 0.618144 3.915158 -0.766387
v 0.657913 3.915157 -0.331410
v 0.466523 3.915158 -0.025683
v 0.024090 3.915158 0.036457
v -0.358690 3.915157 -0.132563
v -0.256859 3.855417 -0.839443
v -0.361736 3.855417 -0.480763
v 0.192016 3.855417 -0.935930
v 0.538112 3.855417 -0.717785
v 0.571672 3.855417 -0.350715
v 0.410161 3.855417 -0.092717
v 0.036798 3.855417 -0.040278
v -0.286224 3.855417 -0.182911
v -0.093457 4.316077 -0.734456
v -0.151040 4.316077 -0.537523
v 0.152998 4.316077 -0.787433
v 0.343022 4.316077 -0.667660
v 0.361449 4.316077 -0.466120
v 0.272771 4.316077 -0.324466
v 0.067776 4.316077 -0.295674
v -0.109580 4.316077 -0.373987
v -0.000844 4.516645 -0.772863
v 0.091666 4.635080 -0.852823
v 0.130884 4.516645 -0.801178
v 0.044289 4.643141 -0.846598
v 0.242298 4.611449 -0.629440
v 0.041189 4.718826 -0.831231
v 0.131738 4.704808 -0.842056
v -0.009461 4.611449 -0.580196
v -0.695411 0.033044 -1.475802
v -1.266357 0.033044 -1.475802
v -0.695411 0.033044 0.709825
v -1.266357 0.033044 0.709825
v -0.695411 0.191062 0.831912
v -0.695411 0.191062 -1.597889
v -1.266357 0.191062 -1.597889
v -1.266357 0.191062 0.831912
v -0.695411 0.322575 0.831912
v -0.695411 0.322575 -1.597889
v -1.266357 0.322575 -1.597889
v -1.266357 0.322575 0.831912
v -0.695411 0.452523 0.685201
v -0.695411 0.452523 -1.451178
v -1.266357 0.452523 -1.451178
v -1.266357 0.452523 0.685201
v -0.695411 0.492752 0.429447
v -0.695411 0.492752 -1.195424
v -1.266357 0.492752 -1.195424
v -1.266357 0.492752 0.429447
v -0.695411 -0.000404 0.533888
v -0.695411 -0.000404 -1.299864
v -1.266357 -0.000404 -1.299864
v -1.266357 -0.000404 0.533888
v -1.266357 0.084980 -1.438607
v -1.266357 0.057369 -1.293375
v -1.266357 0.057369 0.527398
v -1.266357 0.084980 0.672630
v -1.266357 0.209422 0.768776
v -1.266357 0.298091 0.768776
v -1.266357 0.398607 0.655296
v -1.266357 0.434979 0.424060
v -1.266357 0.434979 -1.190037
v -1.266357 0.398607 -1.421273
v -1.266357 0.298092 -1.534753
v -1.266357 0.209422 -1.534753
v -1.221963 0.084980 -1.438607
v -1.221963 0.057369 -1.293375
v -1.221963 0.209422 -1.534753
v -1.221963 0.057369 0.527398
v -1.221963 0.084980 0.672630
v -1.221963 0.209422 0.768776
v -1.221963 0.298091 0.768776
v -1.221963 0.398607 0.655296
v -1.221963 0.434979 0.424060
v -1.221963 0.434979 -1.190037
v -1.221963 0.398607 -1.421273
v -1.221963 0.298092 -1.534753
v -0.578824 0.327157 -1.706767
v -1.389656 0.327157 -1.706767
v -0.578825 0.327157 0.905593
v -1.389656 0.327157 0.905593
v -0.578825 0.647045 0.679997
v -0.578824 0.647045 -1.481171
v -1.389656 0.647045 -1.481171
v -1.389656 0.647045 0.679997
v -0.599210 0.676658 0.625662
v -0.599210 0.676658 -1.426836
v -1.323624 0.676658 -1.426836
v -1.323625 0.676658 0.625662
v -0.578825 0.276812 0.905593
v -0.578824 0.276812 -1.706767
v -1.389656 0.276812 -1.706767
v -1.389656 0.276812 0.905593
v -1.389656 0.276812 -1.248425
v -1.389656 0.276812 0.452507
v -1.389656 0.368145 -1.164106
v -1.389656 0.380766 0.407441
v -1.189680 0.276812 -1.248425
v -1.189680 0.276812 0.452507
v -1.189680 0.368145 -1.164106
v -1.189680 0.380766 0.407441
v 1.122857 0.303982 -1.378321
v 1.005721 2.235972 -1.237114
v 1.122857 0.303982 0.621679
v 1.005721 2.235972 0.480471
v -0.877143 0.303982 -1.378322
v -0.748081 2.235972 -1.237114
v -0.877143 0.303982 0.621678
v -0.748081 2.235972 0.480471
v 1.049526 1.556052 0.533278
v -0.796346 1.556052 0.533278
v 0.731441 1.380360 0.545682
v -0.479782 1.380360 0.545682
v -0.526263 0.479674 0.609274
v 0.773627 0.479674 0.609274
v 0.697007 2.128291 0.492876
v -0.440587 2.128291 0.492876
v -0.461052 1.647402 0.520873
v 0.715580 1.647402 0.520874
v -0.479782 1.388280 0.758595
v 0.731441 1.388280 0.758595
v 0.773627 0.487594 0.822187
v -0.526263 0.487594 0.822186
v 0.697007 2.134827 0.605140
v -0.440588 2.134827 0.605139
v 0.715580 1.653938 0.633137
v -0.461052 1.653938 0.633137
v -0.507157 2.375079 -1.098646
v -0.507157 2.375079 0.137092
v 0.764797 2.375079 0.137092
v 0.764797 2.375079 -1.098646
v -0.507157 3.663433 0.004834
v 0.764797 3.663433 -0.026889
v -0.507157 3.503134 0.137092
v 0.764797 3.495162 0.137092
v -0.259209 2.456007 0.137092
v 0.516849 2.456007 0.137092
v 0.516849 3.344118 0.137092
v -0.259209 3.350126 0.137092
v 0.516849 2.456007 0.020099
v -0.259209 2.456007 0.020099
v -0.259209 3.350126 0.020099
v 0.516849 3.344118 0.020099
v 0.516849 3.567481 -0.302412
v -0.259209 3.585684 -0.302412
v -0.259209 2.231097 -0.302412
v 0.516849 2.221995 -0.302412
v 0.516849 3.202708 -0.075193
v 0.516849 2.594246 -0.075193
v -0.259209 2.598362 -0.075193
v -0.259209 3.210940 -0.075194
v -0.259209 3.210940 0.020099
v -0.259209 2.598362 0.020099
v 0.516849 2.594246 0.020099
v 0.516849 3.202708 0.020099
v 0.516849 2.221995 -0.886017
v 0.516849 3.567481 -0.886017
v -0.259209 3.585684 -0.886017
v -0.259209 2.231097 -0.886018
v -0.325490 3.663433 -1.098646
v -0.507157 3.663433 -0.934853
v -0.507157 3.377452 -1.098646
v 0.764797 3.663433 -0.948659
v 0.607670 3.663433 -1.098646
v 0.764797 3.336676 -1.098646
v 0.124397 0.787823 0.800989
v 0.125113 1.088051 0.779792
v 0.441981 0.787823 0.800989
v 0.435308 1.088051 0.779792
v -0.510770 0.787823 0.800989
v -0.495276 1.088051 0.779792
v 0.759565 0.787823 0.800989
v 0.745503 1.088051 0.779792
v -0.176977 1.388280 0.758595
v 0.125829 1.388280 0.758595
v -0.201291 0.487594 0.822186
v 0.123682 0.487594 0.822187
v 0.080845 1.343514 0.761755
v -0.133292 1.343514 0.761755
v -0.138979 1.132817 0.776631
v 0.080343 1.132817 0.776631
v 0.702673 1.043285 0.782953
v 0.481191 1.043285 0.782953
v 0.485874 0.832588 0.797829
v 0.712542 0.832588 0.797829
v 0.079413 0.743057 0.804150
v -0.149501 0.743057 0.804150
v -0.155189 0.532360 0.819026
v 0.078911 0.532360 0.819026
v -0.231184 1.043285 0.782953
v -0.452650 1.043285 0.782953
v -0.463523 0.832588 0.797829
v -0.236871 0.832589 0.797829
v 0.391415 1.043285 0.782953
v 0.169884 1.043285 0.782953
v 0.169382 0.832588 0.797829
v 0.396098 0.832588 0.797829
v -0.116749 1.331757 0.830316
v 0.063817 1.331757 0.830316
v 0.063394 1.154091 0.842860
v -0.121545 1.154091 0.842860
v 0.499123 1.031528 0.851513
v 0.685882 1.031528 0.851513
v 0.694204 0.853862 0.864057
v 0.503071 0.853862 0.864057
v -0.131800 0.731300 0.872710
v 0.061227 0.731300 0.872710
v 0.060803 0.553634 0.885254
v -0.136596 0.553634 0.885254
v -0.435939 1.031528 0.851513
v -0.249192 1.031528 0.851513
v -0.253988 0.853862 0.864057
v -0.445108 0.853862 0.864057
v 0.187413 1.031528 0.851513
v 0.374214 1.031528 0.851513
v 0.378163 0.853862 0.864057
v 0.186989 0.853862 0.864057
v 0.649778 2.085824 0.607993
v -0.393543 2.085824 0.607992
v -0.409837 1.702940 0.630284
v 0.664566 1.702940 0.630285
v 0.629643 2.081606 0.662791
v -0.373438 2.081606 0.662791
v 0.643861 1.713489 0.684224
v -0.389103 1.713489 0.684223
v 0.598933 2.062145 0.663924
v -0.342772 2.062145 0.663924
v 0.612281 1.732950 0.683090
v -0.357479 1.732950 0.683090
v 0.598933 2.060622 0.637759
v -0.342772 2.060622 0.637759
v 0.612281 1.731427 0.656925
v -0.357479 1.731427 0.656925
v 0.405617 2.594836 -0.075193
v 0.345468 2.595155 -0.075193
v 0.414828 2.594787 0.020099
v 0.346684 2.595148 0.020099
v 0.402820 2.561047 -0.095827
v 0.344901 2.559412 -0.097013
v 0.413569 2.541717 0.020099
v 0.346236 2.539581 0.020099
v 0.151767 2.596182 -0.075193
v 0.117551 2.596364 -0.075193
v 0.140954 2.596239 0.020099
v 0.102379 2.596444 0.020099
v 0.152027 2.550798 -0.103270
v 0.119112 2.552517 -0.102315
v 0.136626 2.529127 0.020099
v 0.098283 2.531332 0.020099
v -0.092490 2.597477 -0.075193
v -0.131696 2.597685 -0.075193
v -0.098084 2.597507 0.020099
v -0.141730 2.597739 0.020099
v -0.130517 2.551468 -0.103783
v -0.091696 2.552534 -0.102996
v -0.144389 2.530629 0.020099
v -0.099306 2.532017 0.020099
v 0.251837 3.205519 -0.075193
v 0.219198 3.205866 -0.075193
v 0.267898 3.205349 0.020099
v 0.231722 3.205733 0.020099
v 0.270696 3.258933 0.020099
v 0.231239 3.260005 0.020099
v 0.250538 3.231506 -0.090941
v 0.216854 3.232347 -0.091235
v 0.058623 3.207569 -0.075193
v 0.046258 3.207700 -0.075193
v 0.047164 3.207691 0.020099
v 0.032976 3.207841 0.020099
v 0.048725 3.259923 0.020099
v 0.034665 3.261180 0.020099
v 0.061202 3.232473 -0.090444
v 0.049272 3.233416 -0.090967
v 1.020140 2.057803 -0.268442
v 1.026215 1.954064 -0.505839
v 1.036065 1.785884 -0.631646
v 1.051863 1.516149 -0.650909
v 1.035605 1.712343 -0.957371
v 1.017696 2.195546 -0.679290
v 1.236241 2.070459 -0.268442
v 1.242317 1.966721 -0.505839
v 1.252167 1.798541 -0.631646
v 1.267965 1.528806 -0.650909
v 1.384363 1.806397 -0.874204
v 1.366454 2.112185 -0.679290
v 1.480626 2.003554 -0.401425
v 1.499438 1.682352 -0.628229
v 1.568463 1.846964 -0.760643
v 1.557842 2.028298 -0.645059
v -0.770477 2.117129 -0.314112
v -0.779370 1.942494 -0.486129
v -0.797596 1.660068 -0.554756
v -0.813315 1.380390 -0.451247
v -0.798748 1.560750 -0.901343
v -0.775598 2.131744 -0.770749
v -1.092294 2.130761 -0.312455
v -1.101188 1.956126 -0.484472
v -1.119414 1.673701 -0.553099
v -1.135132 1.394023 -0.449590
v -1.120566 1.660645 -0.872516
v -1.097415 2.102108 -0.769092
v -1.364792 2.050818 -0.412507
v -1.395782 1.517843 -0.511714
v -1.385244 1.710724 -0.817670
v -1.368496 2.030089 -0.742850
v 0.764797 3.338001 -0.588240
v 0.764797 2.895540 -0.589360
v 0.764797 2.903389 -0.751974
v 0.764797 3.359936 -0.724770
v -0.507157 3.272090 -0.846817
v -0.507156 3.277609 -0.712398
v -0.507157 2.798046 -0.719708
v -0.507157 2.807200 -0.834378
v -0.790726 3.272090 -0.846817
v -0.790726 3.277609 -0.712398
v -0.790726 2.798046 -0.719708
v -0.790726 2.807200 -0.834378
v 1.058866 3.338001 -0.588241
v 1.058866 2.895540 -0.589361
v 1.058865 2.903389 -0.751975
v 1.058865 3.359935 -0.724771
v -0.507157 3.175017 -0.713962
v -0.507157 2.884110 -0.718396
v -0.696661 3.153991 -0.714283
v -0.695301 2.916187 -0.717907
v 0.764797 3.244046 -0.588478
v 0.764797 2.956960 -0.589205
v 0.973006 3.213983 -0.588555
v 0.976084 2.989830 -0.589122
v -0.507157 3.175534 -0.789974
v -0.507157 2.884626 -0.794409
v -0.696661 3.154507 -0.790295
v -0.695301 2.916703 -0.793920
v 0.764797 3.244132 -0.664494
v 0.764797 2.957046 -0.665221
v 0.973006 3.214069 -0.664571
v 0.976084 2.989915 -0.665138
v 1.276486 1.541496 -0.568174
v 1.276486 1.238417 0.148665
v 1.448489 1.623964 -0.560420
v 1.448489 1.320885 0.156419
v 1.490970 1.809270 -0.542998
v 1.490970 1.506191 0.173841
v 1.371940 1.957873 -0.529026
v 1.371940 1.654794 0.187813
v 1.181032 1.957873 -0.529026
v 1.181032 1.654794 0.187813
v 1.062002 1.809270 -0.542998
v 1.062002 1.506191 0.173841
v 1.104483 1.623964 -0.560420
v 1.104483 1.320885 0.156419
v 1.475414 1.297395 0.154409
v 1.276486 1.202017 0.145442
v 1.524545 1.511707 0.174558
v 1.386883 1.683572 0.190717
v 1.166090 1.683572 0.190717
v 1.028427 1.511707 0.174558
v 1.077558 1.297395 0.154409
v 1.475414 1.286211 0.273359
v 1.276486 1.190833 0.264392
v 1.524544 1.500523 0.293509
v 1.386883 1.672388 0.309667
v 1.166090 1.672388 0.309667
v 1.028427 1.500523 0.293509
v 1.077558 1.286211 0.273359
v 1.441178 1.316444 0.281178
v 1.276486 1.237337 0.276932
v 1.481854 1.494349 0.290718
v 1.367883 1.637172 0.298369
v 1.185089 1.637172 0.298369
v 1.071119 1.494349 0.290718
v 1.111794 1.316444 0.281178
v 1.314822 1.518938 1.227946
v 1.147411 1.439740 1.198830
v 1.356647 1.696894 1.244295
v 1.239284 1.839603 1.235323
v 1.057640 1.839603 1.212042
v 0.948201 1.696894 1.193238
v 0.987450 1.518938 1.186163
v 1.344528 1.494656 1.230803
v 1.148423 1.400795 1.197425
v 1.390908 1.705560 1.248424
v 1.256940 1.874692 1.240591
v 1.041509 1.874692 1.212277
v 0.907004 1.705560 1.184048
v 0.956453 1.494656 1.179183
v 1.344911 1.548766 1.408989
v 1.099773 1.428913 1.363539
v 1.403439 1.715105 1.432906
v 1.231284 1.799426 1.417280
v 0.958081 1.799426 1.373878
v 0.789559 1.715105 1.335382
v 0.852618 1.548766 1.330781
v 1.112579 1.527319 1.343644
v 1.072319 1.608178 1.343644
v 1.112578 1.527319 1.818279
v 1.072319 1.608178 1.818279
v 1.302984 1.622121 1.343644
v 1.262725 1.702981 1.343644
v 1.302984 1.622121 1.818279
v 1.262724 1.702981 1.818279
v 0.804607 1.606215 1.330720
v 0.833117 1.691837 1.334596
v 0.740657 1.606215 1.801027
v 0.769168 1.691837 1.804903
v 1.004390 1.538462 1.357885
v 1.032900 1.624085 1.361761
v 0.940441 1.538462 1.828192
v 0.968951 1.624085 1.832068
v 1.249349 1.864110 1.317580
v 1.335739 1.890060 1.320899
v 1.206148 1.925496 1.544078
v 1.292538 1.951446 1.547395
v 1.308138 1.662375 1.340538
v 1.394528 1.688326 1.343856
v 1.264938 1.723761 1.567035
v 1.351328 1.749711 1.570353
v 0.930998 0.033044 -1.475802
v 1.501944 0.033044 -1.475802
v 0.930998 0.033044 0.709825
v 1.501943 0.033044 0.709825
v 0.930998 0.191062 0.831912
v 0.930998 0.191062 -1.597888
v 1.501944 0.191062 -1.597888
v 1.501943 0.191062 0.831912
v 0.930998 0.322575 0.831912
v 0.930998 0.322575 -1.597889
v 1.501944 0.322575 -1.597888
v 1.501943 0.322575 0.831912
v 0.930998 0.452523 0.685202
v 0.930998 0.452523 -1.451178
v 1.501944 0.452523 -1.451178
v 1.501943 0.452523 0.685202
v 0.930998 0.492752 0.429447
v 0.930998 0.492752 -1.195424
v 1.501944 0.492752 -1.195424
v 1.501943 0.492752 0.429447
v 0.930998 -0.000404 0.533888
v 0.930998 -0.000404 -1.299864
v 1.501944 -0.000404 -1.299864
v 1.501943 -0.000404 0.533888
v 1.501944 0.084980 -1.438607
v 1.501944 0.057369 -1.293375
v 1.501943 0.057369 0.527399
v 1.501943 0.084980 0.672631
v 1.501943 0.209422 0.768777
v 1.501943 0.298091 0.768777
v 1.501943 0.398607 0.655296
v 1.501943 0.434979 0.424061
v 1.501944 0.434979 -1.190037
v 1.501944 0.398607 -1.421273
v 1.501944 0.298092 -1.534753
v 1.501944 0.209422 -1.534753
v 1.457550 0.084980 -1.438607
v 1.457550 0.057369 -1.293375
v 1.457550 0.209422 -1.534753
v 1.457549 0.057369 0.527399
v 1.457549 0.084980 0.672631
v 1.457549 0.209422 0.768777
v 1.457549 0.298091 0.768777
v 1.457549 0.398607 0.655296
v 1.457549 0.434979 0.424061
v 1.457550 0.434979 -1.190037
v 1.457550 0.398607 -1.421273
v 1.457550 0.298092 -1.534753
v 0.814412 0.327157 -1.706767
v 1.625243 0.327157 -1.706767
v 0.814411 0.327157 0.905593
v 1.625243 0.327157 0.905594
v 0.814411 0.647045 0.679997
v 0.814412 0.647045 -1.481171
v 1.625243 0.647045 -1.481170
v 1.625243 0.647045 0.679997
v 0.834797 0.676658 0.625662
v 0.834797 0.676658 -1.426836
v 1.559211 0.676658 -1.426836
v 1.559211 0.676658 0.625663
v 0.814411 0.276812 0.905593
v 0.814412 0.276812 -1.706767
v 1.625243 0.276812 -1.706767
v 1.625243 0.276812 0.905594
v 1.625243 0.276812 -1.248425
v 1.625243 0.276812 0.452508
v 1.625243 0.368145 -1.164106
v 1.625243 0.380766 0.407442
v 1.425267 0.276812 -1.248425
v 1.425267 0.276812 0.452508
v 1.425267 0.368145 -1.164106
v 1.425267 0.380766 0.407442
vt 0.4161 0.7430
vt 0.4161 0.8155
vt 0.3985 0.8132
vt 0.3985 0.7406
vt 0.5201 0.7406
vt 0.5201 0.8132
vt 0.5031 0.8080
vt 0.5031 0.7354
vt 0.4858 0.8038
vt 0.4858 0.7312
vt 0.4680 0.8038
vt 0.4680 0.7312
vt 0.4508 0.8080
vt 0.4508 0.7354
vt 0.5618 0.6370
vt 0.5798 0.6382
vt 0.5795 0.6410
vt 0.5615 0.6402
vt 0.4337 0.8132
vt 0.4337 0.7406
vt 0.5799 0.6510
vt 0.5620 0.6510
vt 0.5960 0.6392
vt 0.6115 0.6387
vt 0.6116 0.6413
vt 0.5959 0.6414
vt 0.5417 0.6354
vt 0.5413 0.6393
vt 0.6283 0.6383
vt 0.6483 0.6359
vt 0.6507 0.6395
vt 0.6286 0.6413
vt 0.5189 0.6320
vt 0.5166 0.6357
vt 0.5966 0.6508
vt 0.5968 0.6541
vt 0.5803 0.6546
vt 0.6124 0.6506
vt 0.6499 0.6542
vt 0.6290 0.6511
vt 0.5419 0.6510
vt 0.5158 0.6531
vt 0.4985 0.6359
vt 0.5151 0.6320
vt 0.5157 0.7230
vt 0.4992 0.7275
vt 0.6284 0.6547
vt 0.6122 0.6536
vt 0.5421 0.6564
vt 0.5185 0.6584
vt 0.5623 0.6553
vt 0.6466 0.6584
vt 0.5436 0.7760
vt 0.5423 0.7920
vt 0.5384 0.7928
vt 0.5407 0.7749
vt 0.4155 0.6321
vt 0.4321 0.6360
vt 0.4323 0.7232
vt 0.4158 0.7209
vt 0.4484 0.6410
vt 0.4653 0.6431
vt 0.4652 0.7311
vt 0.4487 0.7279
vt 0.4822 0.6408
vt 0.4823 0.7309
vt 0.3985 0.6320
vt 0.3985 0.7230
vt 0.5503 0.7613
vt 0.5232 0.7778
vt 0.5362 0.7525
vt 0.5500 0.8053
vt 0.5622 0.8141
vt 0.5605 0.8170
vt 0.5480 0.8073
vt 0.5761 0.8227
vt 0.5933 0.8208
vt 0.5954 0.8242
vt 0.5754 0.8256
vt 0.5526 0.7636
vt 0.5667 0.7520
vt 0.5655 0.7478
vt 0.5992 0.6820
vt 0.5760 0.6932
vt 0.5528 0.6820
vt 0.5470 0.6664
vt 0.5631 0.6585
vt 0.5889 0.6585
vt 0.6050 0.6664
vt 0.5314 0.8126
vt 0.5202 0.7961
vt 0.5701 0.8426
vt 0.5515 0.8327
vt 0.5556 0.7312
vt 0.5889 0.8426
vt 0.5955 0.7510
vt 0.6151 0.7854
vt 0.5960 0.7821
vt 0.6010 0.7477
vt 0.5470 0.7018
vt 0.5669 0.7018
vt 0.5669 0.7102
vt 0.5470 0.7102
vt 0.6151 0.7345
vt 0.6102 0.7689
vt 0.6157 0.7656
vt 0.5960 0.7312
vt 0.6154 0.8195
vt 0.5958 0.7855
vt 0.6151 0.7878
vt 0.6104 0.8229
vt 0.5470 0.6933
vt 0.5669 0.6933
vt 0.5669 0.7017
vt 0.5470 0.7017
vt 0.5958 0.8360
vt 0.6005 0.8008
vt 0.5955 0.8042
vt 0.6151 0.8383
vt 0.5293 0.6873
vt 0.5158 0.7265
vt 0.5158 0.6995
vt 0.5340 0.6851
vt 0.5470 0.7104
vt 0.5667 0.7104
vt 0.5668 0.7188
vt 0.5471 0.7188
vt 0.5435 0.6946
vt 0.5428 0.6708
vt 0.5469 0.6585
vt 0.5307 0.6784
vt 0.8123 0.0463
vt 0.8029 0.0409
vt 0.8196 0.0301
vt 0.8195 0.0410
vt 0.8529 0.0449
vt 0.8703 0.0459
vt 0.8810 0.0625
vt 0.8714 0.0771
vt 0.8529 0.0885
vt 0.8660 0.0885
vt 0.8595 0.0998
vt 0.8206 0.0499
vt 0.7883 0.0313
vt 0.8206 0.0126
vt 0.8813 0.0459
vt 0.8865 0.0532
vt 0.8725 0.0998
vt 0.8278 0.0445
vt 0.8529 0.0313
vt 0.8372 0.0391
vt 0.8953 0.0521
vt 0.9008 0.0615
vt 0.9086 0.0771
vt 0.8288 0.0535
vt 0.8529 0.0686
vt 0.8383 0.0589
vt 0.8988 0.0438
vt 0.9098 0.0438
vt 0.9272 0.0449
vt 0.8791 0.0885
vt 0.8216 0.0589
vt 0.8206 0.0872
vt 0.8216 0.0697
vt 0.8936 0.0365
vt 0.8991 0.0272
vt 0.9087 0.0126
vt 0.8725 0.0772
vt 0.8133 0.0553
vt 0.7883 0.0686
vt 0.8039 0.0607
vt 0.8848 0.0376
vt 0.8793 0.0282
vt 0.8715 0.0126
vt 0.8595 0.0772
vt 0.6483 0.0402
vt 0.6397 0.0352
vt 0.6550 0.0253
vt 0.6550 0.0353
vt 0.6856 0.0262
vt 0.6990 0.0350
vt 0.7000 0.0532
vt 0.6856 0.0604
vt 0.6856 0.0879
vt 0.6977 0.0879
vt 0.6917 0.0983
vt 0.6559 0.0435
vt 0.6263 0.0264
vt 0.6559 0.0092
vt 0.7076 0.0400
vt 0.7086 0.0482
vt 0.7037 0.0983
vt 0.6626 0.0386
vt 0.6856 0.0264
vt 0.6712 0.0336
vt 0.7163 0.0514
vt 0.7162 0.0614
vt 0.7153 0.0774
vt 0.6635 0.0468
vt 0.6856 0.0606
vt 0.6722 0.0518
vt 0.7230 0.0466
vt 0.7315 0.0516
vt 0.7449 0.0605
vt 0.7097 0.0879
vt 0.6569 0.0517
vt 0.6559 0.0778
vt 0.6569 0.0617
vt 0.7219 0.0385
vt 0.7306 0.0335
vt 0.7449 0.0263
vt 0.7037 0.0775
vt 0.6493 0.0484
vt 0.6263 0.0606
vt 0.6406 0.0534
vt 0.7143 0.0352
vt 0.7143 0.0252
vt 0.7153 0.0092
vt 0.6917 0.0775
vt 0.7003 0.4314
vt 0.6941 0.4485
vt 0.6846 0.4405
vt 0.7120 0.4516
vt 0.6783 0.4234
vt 0.7120 0.4084
vt 0.6941 0.4234
vt 0.6941 0.4052
vt 0.7003 0.3881
vt 0.6941 0.4667
vt 0.6824 0.4527
vt 0.6667 0.4437
vt 0.6824 0.4095
vt 0.6846 0.3972
vt 0.6707 0.4234
vt 0.6783 0.3801
vt 0.6707 0.4667
vt 0.6667 0.4004
vt 0.7452 0.1694
vt 0.7422 0.2003
vt 0.7300 0.2051
vt 0.7327 0.1639
vt 0.8332 0.1666
vt 0.8020 0.1393
vt 0.8061 0.1279
vt 0.8457 0.1600
vt 0.7968 0.1531
vt 0.7639 0.1519
vt 0.7580 0.1399
vt 0.8214 0.1724
vt 0.8061 0.2255
vt 0.8228 0.1989
vt 0.8371 0.2027
vt 0.8120 0.2369
vt 0.7682 0.2238
vt 0.7626 0.2370
vt 0.8436 0.3118
vt 0.8436 0.2800
vt 0.8524 0.2832
vt 0.8525 0.3089
vt 0.7538 0.1279
vt 0.7581 0.2479
vt 0.7167 0.2102
vt 0.8492 0.2056
vt 0.8187 0.2495
vt 0.7210 0.1577
vt 0.8435 0.2981
vt 0.8387 0.3379
vt 0.7963 0.3136
vt 0.7967 0.3014
vt 0.8670 0.2500
vt 0.9092 0.2495
vt 0.9056 0.2586
vt 0.8713 0.2587
vt 0.9430 0.2826
vt 0.9329 0.3203
vt 0.9246 0.3157
vt 0.9332 0.2852
vt 0.9093 0.3425
vt 0.8730 0.3376
vt 0.8765 0.3295
vt 0.9059 0.3338
vt 0.7855 0.3223
vt 0.7716 0.3230
vt 0.7764 0.3029
vt 0.7810 0.3027
vt 0.7534 0.3682
vt 0.7251 0.3418
vt 0.7642 0.3143
vt 0.7167 0.2932
vt 0.7542 0.2495
vt 0.7729 0.2916
vt 0.7630 0.3004
vt 0.8177 0.2547
vt 0.7882 0.2916
vt 0.8031 0.3682
vt 0.7779 0.3007
vt 0.7786 0.3007
vt 0.7768 0.2985
vt 0.7803 0.2981
vt 0.7786 0.3001
vt 0.7781 0.3001
vt 0.7161 0.9224
vt 0.7424 0.9805
vt 0.7091 0.9854
vt 0.7086 0.9279
vt 0.7542 0.7470
vt 0.7253 0.7870
vt 0.7166 0.7819
vt 0.7297 0.7335
vt 0.7027 0.9275
vt 0.6895 0.9826
vt 0.6622 0.9699
vt 0.6949 0.9205
vt 0.7090 0.7813
vt 0.7128 0.7303
vt 0.7004 0.7862
vt 0.6840 0.7332
vt 0.8139 0.9250
vt 0.8111 0.9102
vt 0.8111 0.7555
vt 0.8139 0.7406
vt 0.8273 0.7303
vt 0.8384 0.7303
vt 0.8493 0.7427
vt 0.8527 0.7643
vt 0.8527 0.9014
vt 0.8493 0.9230
vt 0.8384 0.9353
vt 0.8273 0.9353
vt 0.6498 0.7537
vt 0.6959 0.7993
vt 0.6872 0.9051
vt 0.6348 0.9423
vt 0.8920 0.9076
vt 0.8882 0.9203
vt 0.8849 0.9184
vt 0.8882 0.9070
vt 0.7693 0.7624
vt 0.7693 0.9654
vt 0.7220 0.9114
vt 0.7272 0.7978
vt 0.8082 0.7406
vt 0.8110 0.7555
vt 0.8061 0.7560
vt 0.8038 0.7437
vt 0.8110 0.9102
vt 0.8061 0.9096
vt 0.8082 0.9250
vt 0.8038 0.9219
vt 0.7949 0.9353
vt 0.7933 0.9300
vt 0.7838 0.9353
vt 0.7858 0.9300
vt 0.7728 0.9230
vt 0.7773 0.9204
vt 0.7694 0.9014
vt 0.7743 0.9009
vt 0.7694 0.7643
vt 0.7743 0.7647
vt 0.7728 0.7427
vt 0.7773 0.7452
vt 0.7838 0.7303
vt 0.7858 0.7356
vt 0.7949 0.7303
vt 0.7933 0.7356
vt 0.9233 0.7384
vt 0.9256 0.7507
vt 0.9256 0.9043
vt 0.9233 0.9166
vt 0.9128 0.9247
vt 0.9053 0.9247
vt 0.8968 0.9151
vt 0.8937 0.8956
vt 0.8937 0.7594
vt 0.8968 0.7399
vt 0.9053 0.7303
vt 0.9128 0.7303
vt 0.8570 0.7407
vt 0.8674 0.7310
vt 0.8691 0.7350
vt 0.8604 0.7427
vt 0.8903 0.7394
vt 0.8936 0.7538
vt 0.8895 0.7544
vt 0.8867 0.7421
vt 0.8590 0.9197
vt 0.8528 0.8997
vt 0.8568 0.8990
vt 0.8624 0.9174
vt 0.8780 0.9293
vt 0.8765 0.9256
vt 0.8771 0.7303
vt 0.8763 0.7348
vt 0.8528 0.7604
vt 0.8567 0.7608
vt 0.8692 0.9294
vt 0.8705 0.9254
vt 0.9000 0.6214
vt 0.6235 0.6059
vt 0.6354 0.5974
vt 0.8880 0.6113
vt 0.7364 0.6576
vt 0.7315 0.6699
vt 0.6789 0.6715
vt 0.6787 0.6657
vt 0.7037 0.6277
vt 0.9548 0.6198
vt 0.9822 0.6561
vt 0.9824 0.6619
vt 0.9291 0.6636
vt 0.9190 0.6533
vt 0.6273 0.4921
vt 0.6239 0.4865
vt 0.9101 0.4774
vt 0.9067 0.4865
vt 0.8732 0.5174
vt 0.8654 0.5196
vt 0.6637 0.5237
vt 0.6583 0.5199
vt 0.5718 0.5746
vt 0.9725 0.5950
vt 0.5665 0.5710
vt 0.9801 0.5903
vt 0.9651 0.6626
vt 0.9827 0.6703
vt 0.9703 0.6985
vt 0.9562 0.6889
vt 0.7835 0.6683
vt 0.7942 0.6905
vt 0.7852 0.7028
vt 0.7675 0.6777
vt 0.3607 0.3100
vt 0.2794 0.3081
vt 0.2663 0.2985
vt 0.3723 0.2985
vt 0.0193 0.6028
vt 0.0378 0.6326
vt 0.0611 0.6482
vt 0.0617 0.6344
vt 0.0646 0.6264
vt 0.0788 0.6107
vt 0.1269 0.5970
vt 0.1341 0.6386
vt 0.1413 0.7231
vt 0.0164 0.7231
vt 0.1307 0.8424
vt 0.0818 0.8350
vt 0.0713 0.8242
vt 0.0671 0.8068
vt 0.0735 0.7896
vt 0.0458 0.8007
vt 0.0252 0.8424
vt 0.0164 0.7234
vt 0.1394 0.7234
vt 0.1340 0.8005
vt 0.3981 0.1078
vt 0.4430 0.1085
vt 0.4303 0.1214
vt 0.4088 0.1188
vt 0.2507 0.5487
vt 0.2882 0.5051
vt 0.3001 0.5052
vt 0.2542 0.5620
vt 0.1591 0.4373
vt 0.1757 0.5556
vt 0.1465 0.5282
vt 0.1445 0.5138
vt 0.1407 0.4923
vt 0.1344 0.4618
vt 0.2926 0.2488
vt 0.2962 0.2525
vt 0.2958 0.2699
vt 0.2921 0.2736
vt 0.2884 0.2699
vt 0.2888 0.2525
vt 0.2626 0.8424
vt 0.2410 0.8316
vt 0.2382 0.7761
vt 0.2576 0.7653
vt 0.4465 0.1105
vt 0.4465 0.0635
vt 0.4592 0.0764
vt 0.4571 0.0996
vt 0.1397 0.8424
vt 0.1442 0.7653
vt 0.1637 0.7761
vt 0.1611 0.8316
vt 0.1469 0.7234
vt 0.2546 0.7234
vt 0.2357 0.7300
vt 0.1658 0.7300
vt 0.2370 0.7596
vt 0.1647 0.7596
vt 0.3708 0.0323
vt 0.3724 0.0793
vt 0.3662 0.0743
vt 0.3634 0.0384
vt 0.2760 0.3464
vt 0.2647 0.3578
vt 0.0131 0.5486
vt 0.0164 0.4373
vt 0.0400 0.4591
vt 0.0363 0.4798
vt 0.0337 0.5062
vt 0.0375 0.5253
vt 0.3562 0.3486
vt 0.3694 0.3585
vt 0.2507 0.8436
vt 0.2542 0.9531
vt 0.2363 0.9301
vt 0.2337 0.8557
vt 0.1397 0.9531
vt 0.1574 0.9295
vt 0.1420 0.8426
vt 0.1592 0.8546
vt 0.3132 0.6347
vt 0.3142 0.6420
vt 0.3142 0.6426
vt 0.3129 0.6507
vt 0.3127 0.6591
vt 0.2647 0.6702
vt 0.2721 0.5970
vt 0.3443 0.6013
vt 0.3443 0.6575
vt 0.3233 0.6314
vt 0.3132 0.6296
vt 0.2575 0.8432
vt 0.3356 0.8426
vt 0.3361 0.9042
vt 0.3250 0.9219
vt 0.2677 0.9223
vt 0.2579 0.9023
vt 0.2628 0.8269
vt 0.3410 0.8283
vt 0.3410 0.8411
vt 0.2628 0.8414
vt 0.4094 0.8431
vt 0.4090 0.9212
vt 0.4041 0.9060
vt 0.4044 0.8583
vt 0.1156 0.0644
vt 0.1095 0.0705
vt 0.1068 0.0680
vt 0.1042 0.0683
vt 0.1042 0.0713
vt 0.0925 0.0711
vt 0.0924 0.0682
vt 0.0877 0.0679
vt 0.0877 0.0685
vt 0.0853 0.0685
vt 0.0853 0.0680
vt 0.0708 0.0669
vt 0.0706 0.0642
vt 0.0631 0.0642
vt 0.0631 0.0347
vt 0.1156 0.0352
vt 0.3401 0.9208
vt 0.3401 0.8426
vt 0.3494 0.8579
vt 0.3495 0.9056
vt 0.2926 0.4872
vt 0.2404 0.4455
vt 0.2469 0.4374
vt 0.2991 0.4790
vt 0.1558 0.0775
vt 0.1429 0.0878
vt 0.1558 0.1045
vt 0.1512 0.1076
vt 0.1386 0.0913
vt 0.1341 0.0947
vt 0.1323 0.0923
vt 0.1295 0.0946
vt 0.1315 0.0970
vt 0.1200 0.1060
vt 0.1149 0.0994
vt 0.1510 0.0713
vt 0.1149 0.1359
vt 0.1294 0.1279
vt 0.1334 0.1329
vt 0.1180 0.1415
vt 0.1680 0.3971
vt 0.1039 0.2829
vt 0.1106 0.2986
vt 0.1706 0.4100
vt 0.2252 0.4506
vt 0.1878 0.4944
vt 0.1759 0.4943
vt 0.2217 0.4373
vt 0.0996 0.3276
vt 0.0131 0.2047
vt 0.1727 0.3121
vt 0.2608 0.4371
vt 0.2355 0.5538
vt 0.1833 0.5123
vt 0.1361 0.2111
vt 0.1837 0.3171
vt 0.1652 0.3388
vt 0.1026 0.2349
vt 0.1677 0.0440
vt 0.1170 0.0520
vt 0.1156 0.0439
vt 0.1216 0.0428
vt 0.1206 0.0365
vt 0.1285 0.0347
vt 0.1297 0.0413
vt 0.1378 0.0399
vt 0.1388 0.0438
vt 0.1422 0.0430
vt 0.1413 0.0390
vt 0.1537 0.0369
vt 0.1544 0.0409
vt 0.1594 0.0403
vt 0.1586 0.0359
vt 0.1662 0.0347
vt 0.2290 0.5620
vt 0.1768 0.5205
vt 0.1871 0.1133
vt 0.1801 0.1169
vt 0.1766 0.1115
vt 0.1842 0.1077
vt 0.0631 0.0751
vt 0.0803 0.0713
vt 0.0809 0.0733
vt 0.0831 0.0731
vt 0.0830 0.0713
vt 0.0924 0.0715
vt 0.0922 0.0732
vt 0.0943 0.0734
vt 0.0945 0.0754
vt 0.1149 0.0756
vt 0.1149 0.1048
vt 0.0631 0.1038
vt 0.2327 0.2416
vt 0.1611 0.2416
vt 0.1611 0.1877
vt 0.2327 0.1877
vt 0.3215 0.9244
vt 0.3326 0.9344
vt 0.3326 0.9922
vt 0.2545 0.9902
vt 0.2545 0.9336
vt 0.2641 0.9244
vt 0.3399 0.9241
vt 0.2545 0.9241
vt 0.0878 0.5319
vt 0.1182 0.5344
vt 0.1106 0.4561
vt 0.0807 0.4570
vt 0.5364 0.1558
vt 0.4917 0.1558
vt 0.5024 0.1450
vt 0.5236 0.1429
vt 0.4433 0.1545
vt 0.4326 0.1437
vt 0.0236 0.9617
vt 0.0164 0.8426
vt 0.1393 0.8426
vt 0.1314 0.9617
vt 0.4916 0.1108
vt 0.5045 0.1235
vt 0.2645 0.7199
vt 0.1416 0.7199
vt 0.1416 0.5970
vt 0.2645 0.5970
vt 0.3181 0.2240
vt 0.3431 0.2240
vt 0.3395 0.2277
vt 0.3218 0.2277
vt 0.2682 0.2240
vt 0.3219 0.2451
vt 0.3182 0.2488
vt 0.2671 0.2488
vt 0.3693 0.2488
vt 0.3658 0.2525
vt 0.3475 0.2525
vt 0.3399 0.2451
vt 0.3680 0.2240
vt 0.2706 0.2525
vt 0.2659 0.2736
vt 0.2698 0.2699
vt 0.3451 0.2984
vt 0.3183 0.2984
vt 0.3220 0.2947
vt 0.3413 0.2947
vt 0.3408 0.2773
vt 0.3480 0.2699
vt 0.3667 0.2699
vt 0.3706 0.2736
vt 0.3718 0.2984
vt 0.3182 0.2736
vt 0.3219 0.2773
vt 0.2647 0.2984
vt 0.3145 0.2525
vt 0.3145 0.2699
vt 0.5366 0.0910
vt 0.5366 0.0635
vt 0.5637 0.0628
vt 0.5637 0.0909
vt 0.5636 0.1107
vt 0.5643 0.1391
vt 0.5371 0.1391
vt 0.5365 0.1100
vt 0.4465 0.1408
vt 0.4465 0.1114
vt 0.4736 0.1106
vt 0.4736 0.1407
vt 0.4465 0.1707
vt 0.4465 0.1422
vt 0.4736 0.1409
vt 0.4736 0.1700
vt 0.5371 0.1392
vt 0.5655 0.1392
vt 0.5656 0.1663
vt 0.5365 0.1663
vt 0.4916 0.1099
vt 0.4916 0.0639
vt 0.5044 0.0766
vt 0.5022 0.0990
vt 0.5364 0.1100
vt 0.5257 0.1210
vt 0.4913 0.1105
vt 0.4787 0.0975
vt 0.3981 0.0628
vt 0.4464 0.0628
vt 0.4327 0.0734
vt 0.4112 0.0756
vt 0.3986 0.1545
vt 0.4112 0.1415
vt 0.5363 0.1095
vt 0.5236 0.0966
vt 0.4915 0.0628
vt 0.4809 0.0739
vt 0.3983 0.1072
vt 0.4090 0.0970
vt 0.5365 0.0628
vt 0.5258 0.0739
vt 0.4430 0.1077
vt 0.4329 0.0952
vt 0.2663 0.3587
vt 0.3600 0.3587
vt 0.3561 0.3627
vt 0.2702 0.3627
vt 0.3617 0.3983
vt 0.3575 0.3943
vt 0.2647 0.3983
vt 0.2689 0.3943
vt 0.2697 0.1184
vt 0.3650 0.1184
vt 0.3620 0.1203
vt 0.2726 0.1203
vt 0.2684 0.0322
vt 0.2760 0.0375
vt 0.2703 0.0793
vt 0.2764 0.0734
vt 0.3550 0.0828
vt 0.2722 0.0818
vt 0.2684 0.0793
vt 0.3577 0.0798
vt 0.3664 0.1534
vt 0.2684 0.1534
vt 0.2714 0.1516
vt 0.3634 0.1516
vt 0.4002 0.0124
vt 0.5436 0.0124
vt 0.5459 0.0627
vt 0.3981 0.0627
vt 0.2747 0.1153
vt 0.2721 0.1184
vt 0.3566 0.1158
vt 0.3604 0.1184
vt 0.1522 0.1321
vt 0.1514 0.1319
vt 0.1541 0.1247
vt 0.1550 0.1250
vt 0.1499 0.1307
vt 0.1506 0.1244
vt 0.1245 0.1114
vt 0.1208 0.1166
vt 0.1149 0.1131
vt 0.1181 0.1077
vt 0.1322 0.1257
vt 0.1354 0.1327
vt 0.1347 0.1250
vt 0.1376 0.1321
vt 0.1383 0.1245
vt 0.1392 0.1308
vt 0.1454 0.1174
vt 0.1449 0.1238
vt 0.1314 0.1211
vt 0.1328 0.1149
vt 0.1271 0.1116
vt 0.1236 0.1186
vt 0.1308 0.1129
vt 0.1278 0.1203
vt 0.1680 0.1149
vt 0.1692 0.1211
vt 0.1560 0.1230
vt 0.1541 0.1168
vt 0.1486 0.1159
vt 0.1493 0.1242
vt 0.1508 0.1160
vt 0.1519 0.1243
vt 0.1706 0.1125
vt 0.1735 0.1202
vt 0.1542 0.1322
vt 0.1579 0.1270
vt 0.1752 0.1358
vt 0.1724 0.1415
vt 0.1730 0.1116
vt 0.1764 0.1194
vt 0.5267 0.3123
vt 0.5234 0.3562
vt 0.5028 0.3336
vt 0.5065 0.3068
vt 0.0597 0.6238
vt 0.5622 0.2643
vt 0.5620 0.3225
vt 0.5277 0.2777
vt 0.6109 0.2300
vt 0.6392 0.2311
vt 0.6381 0.2538
vt 0.6105 0.2521
vt 0.5624 0.2309
vt 0.5891 0.2300
vt 0.5895 0.2519
vt 0.5632 0.2532
vt 0.5446 0.3652
vt 0.5448 0.2300
vt 0.5243 0.2400
vt 0.5066 0.2844
vt 0.5028 0.2609
vt 0.5808 0.2772
vt 0.6215 0.2776
vt 0.5624 0.3616
vt 0.5680 0.3396
vt 0.5900 0.3386
vt 0.6027 0.3616
vt 0.4743 0.3783
vt 0.4649 0.3328
vt 0.4926 0.3266
vt 0.5011 0.3605
vt 0.0538 0.8357
vt 0.4414 0.3849
vt 0.4324 0.3382
vt 0.4324 0.2779
vt 0.4460 0.2300
vt 0.4780 0.2383
vt 0.4655 0.2878
vt 0.5337 0.3653
vt 0.5637 0.3654
vt 0.5627 0.3982
vt 0.5332 0.3982
vt 0.5028 0.3656
vt 0.5028 0.3990
vt 0.5889 0.3662
vt 0.5877 0.3993
vt 0.4930 0.2926
vt 0.5026 0.2566
vt 0.4668 0.3850
vt 0.4668 0.4406
vt 0.4340 0.4323
vt 0.4324 0.3987
vt 0.5722 0.4263
vt 0.5165 0.4263
vt 0.3216 0.6605
vt 0.3374 0.6788
vt 0.2768 0.6812
vt 0.4674 0.4697
vt 0.4674 0.5126
vt 0.4398 0.5126
vt 0.4398 0.4697
vt 0.3010 0.8191
vt 0.3091 0.8044
vt 0.3161 0.7994
vt 0.3652 0.7769
vt 0.3652 0.7897
vt 0.3202 0.8267
vt 0.3876 0.5825
vt 0.3876 0.5718
vt 0.4142 0.5718
vt 0.4142 0.5825
vt 0.4944 0.5576
vt 0.4818 0.5569
vt 0.4837 0.5133
vt 0.4944 0.5126
vt 0.4675 0.5093
vt 0.4675 0.4967
vt 0.4940 0.4967
vt 0.4940 0.5093
vt 0.4398 0.5562
vt 0.4398 0.5126
vt 0.4664 0.5127
vt 0.4664 0.5562
vt 0.4021 0.4784
vt 0.4031 0.4704
vt 0.4210 0.4697
vt 0.4397 0.4818
vt 0.4317 0.4977
vt 0.4397 0.5030
vt 0.4252 0.5252
vt 0.3876 0.5007
vt 0.4817 0.5126
vt 0.4817 0.5555
vt 0.4688 0.5542
vt 0.4665 0.5128
vt 0.4366 0.5579
vt 0.3944 0.5587
vt 0.3939 0.5586
vt 0.3938 0.5580
vt 0.3944 0.5579
vt 0.3876 0.5579
vt 0.3876 0.5253
vt 0.4366 0.5253
vt 0.4151 0.5587
vt 0.4151 0.5717
vt 0.3876 0.5717
vt 0.3876 0.5587
vt 0.4577 0.5563
vt 0.4729 0.5563
vt 0.4729 0.5839
vt 0.4577 0.5839
vt 0.4576 0.5836
vt 0.4398 0.5816
vt 0.4400 0.5593
vt 0.4576 0.5563
vt 0.5017 0.5707
vt 0.5017 0.5528
vt 0.5089 0.5528
vt 0.5088 0.5707
vt 0.5019 0.5305
vt 0.5020 0.5126
vt 0.5091 0.5126
vt 0.5091 0.5305
vt 0.4675 0.4697
vt 0.4873 0.4728
vt 0.4870 0.4938
vt 0.4675 0.4966
vt 0.5016 0.5126
vt 0.5016 0.5327
vt 0.4945 0.5327
vt 0.4945 0.5126
vt 0.5016 0.5537
vt 0.5016 0.5734
vt 0.4945 0.5734
vt 0.4945 0.5537
vt 0.3112 0.7940
vt 0.3079 0.7973
vt 0.2973 0.7849
vt 0.3011 0.7821
vt 0.2971 0.7773
vt 0.2920 0.7824
vt 0.2628 0.7723
vt 0.3204 0.7234
vt 0.4161 0.7430
vt 0.3985 0.7406
vt 0.3985 0.8132
vt 0.4161 0.8155
vt 0.5201 0.7406
vt 0.5031 0.7354
vt 0.5031 0.8080
vt 0.5201 0.8132
vt 0.4858 0.7312
vt 0.4858 0.8038
vt 0.4680 0.7312
vt 0.4680 0.8038
vt 0.4508 0.7354
vt 0.4508 0.8080
vt 0.5618 0.6370
vt 0.5615 0.6402
vt 0.5795 0.6410
vt 0.5798 0.6382
vt 0.4337 0.7406
vt 0.4337 0.8132
vt 0.5620 0.6510
vt 0.5799 0.6510
vt 0.5960 0.6392
vt 0.5959 0.6414
vt 0.6116 0.6413
vt 0.6115 0.6387
vt 0.5417 0.6354
vt 0.5413 0.6393
vt 0.6283 0.6383
vt 0.6286 0.6413
vt 0.6507 0.6395
vt 0.6483 0.6359
vt 0.5189 0.6320
vt 0.5166 0.6357
vt 0.5803 0.6546
vt 0.5968 0.6541
vt 0.5966 0.6508
vt 0.6124 0.6506
vt 0.6290 0.6511
vt 0.6499 0.6542
vt 0.5419 0.6510
vt 0.5158 0.6531
vt 0.4985 0.6359
vt 0.4992 0.7275
vt 0.5157 0.7230
vt 0.5151 0.6320
vt 0.6122 0.6536
vt 0.6284 0.6547
vt 0.5185 0.6584
vt 0.5421 0.6564
vt 0.5623 0.6553
vt 0.6466 0.6584
vt 0.5436 0.7760
vt 0.5407 0.7749
vt 0.5384 0.7928
vt 0.5423 0.7920
vt 0.4155 0.6321
vt 0.4158 0.7209
vt 0.4323 0.7232
vt 0.4321 0.6360
vt 0.4484 0.6410
vt 0.4487 0.7279
vt 0.4652 0.7311
vt 0.4653 0.6431
vt 0.4822 0.6408
vt 0.4823 0.7309
vt 0.3985 0.6320
vt 0.3985 0.7230
vt 0.5503 0.7613
vt 0.5362 0.7525
vt 0.5232 0.7778
vt 0.5500 0.8053
vt 0.5480 0.8073
vt 0.5605 0.8170
vt 0.5622 0.8141
vt 0.5761 0.8227
vt 0.5754 0.8256
vt 0.5954 0.8242
vt 0.5933 0.8208
vt 0.5526 0.7636
vt 0.5667 0.7520
vt 0.5655 0.7478
vt 0.5992 0.6820
vt 0.6050 0.6664
vt 0.5889 0.6585
vt 0.5631 0.6585
vt 0.5470 0.6664
vt 0.5528 0.6820
vt 0.5760 0.6932
vt 0.5202 0.7961
vt 0.5314 0.8126
vt 0.5515 0.8327
vt 0.5701 0.8426
vt 0.5556 0.7312
vt 0.5889 0.8426
vt 0.5955 0.7510
vt 0.6010 0.7477
vt 0.5960 0.7821
vt 0.6151 0.7854
vt 0.5470 0.7018
vt 0.5470 0.7102
vt 0.5669 0.7102
vt 0.5669 0.7018
vt 0.6151 0.7345
vt 0.5960 0.7312
vt 0.6157 0.7656
vt 0.6102 0.7689
vt 0.6154 0.8195
vt 0.6104 0.8229
vt 0.6151 0.7878
vt 0.5958 0.7855
vt 0.5470 0.6933
vt 0.5470 0.7017
vt 0.5669 0.7017
vt 0.5669 0.6933
vt 0.5958 0.8360
vt 0.6151 0.8383
vt 0.5955 0.8042
vt 0.6005 0.8008
vt 0.5293 0.6873
vt 0.5340 0.6851
vt 0.5158 0.6995
vt 0.5158 0.7265
vt 0.5470 0.7104
vt 0.5471 0.7188
vt 0.5668 0.7188
vt 0.5667 0.7104
vt 0.5435 0.6946
vt 0.5307 0.6784
vt 0.5469 0.6585
vt 0.5428 0.6708
vt 0.7161 0.9224
vt 0.7086 0.9279
vt 0.7091 0.9854
vt 0.7424 0.9805
vt 0.7542 0.7470
vt 0.7297 0.7335
vt 0.7166 0.7819
vt 0.7253 0.7870
vt 0.7027 0.9275
vt 0.6949 0.9205
vt 0.6622 0.9699
vt 0.6895 0.9826
vt 0.7128 0.7303
vt 0.7090 0.7813
vt 0.6840 0.7332
vt 0.7004 0.7862
vt 0.8139 0.9250
vt 0.8273 0.9353
vt 0.8384 0.9353
vt 0.8493 0.9230
vt 0.8527 0.9014
vt 0.8527 0.7643
vt 0.8493 0.7427
vt 0.8384 0.7303
vt 0.8273 0.7303
vt 0.8139 0.7406
vt 0.8111 0.7555
vt 0.8111 0.9102
vt 0.6498 0.7537
vt 0.6348 0.9423
vt 0.6872 0.9051
vt 0.6959 0.7993
vt 0.8920 0.9076
vt 0.8882 0.9070
vt 0.8849 0.9184
vt 0.8882 0.9203
vt 0.7693 0.7624
vt 0.7272 0.7978
vt 0.7220 0.9114
vt 0.7693 0.9654
vt 0.8082 0.7406
vt 0.8038 0.7437
vt 0.8061 0.7560
vt 0.8110 0.7555
vt 0.8061 0.9096
vt 0.8110 0.9102
vt 0.8038 0.9219
vt 0.8082 0.9250
vt 0.7933 0.9300
vt 0.7949 0.9353
vt 0.7858 0.9300
vt 0.7838 0.9353
vt 0.7773 0.9204
vt 0.7728 0.9230
vt 0.7743 0.9009
vt 0.7694 0.9014
vt 0.7743 0.7647
vt 0.7694 0.7643
vt 0.7773 0.7452
vt 0.7728 0.7427
vt 0.7858 0.7356
vt 0.7838 0.7303
vt 0.7933 0.7356
vt 0.7949 0.7303
vt 0.9233 0.7384
vt 0.9128 0.7303
vt 0.9053 0.7303
vt 0.8968 0.7399
vt 0.8937 0.7594
vt 0.8937 0.8956
vt 0.8968 0.9151
vt 0.9053 0.9247
vt 0.9128 0.9247
vt 0.9233 0.9166
vt 0.9256 0.9043
vt 0.9256 0.7507
vt 0.8570 0.7407
vt 0.8604 0.7427
vt 0.8691 0.7350
vt 0.8674 0.7310
vt 0.8903 0.7394
vt 0.8867 0.7421
vt 0.8895 0.7544
vt 0.8936 0.7538
vt 0.8590 0.9197
vt 0.8624 0.9174
vt 0.8568 0.8990
vt 0.8528 0.8997
vt 0.8765 0.9256
vt 0.8780 0.9293
vt 0.8763 0.7348
vt 0.8771 0.7303
vt 0.8567 0.7608
vt 0.8528 0.7604
vt 0.8705 0.9254
vt 0.8692 0.9294
vt 0.9000 0.6214
vt 0.8880 0.6113
vt 0.6354 0.5974
vt 0.6235 0.6059
vt 0.7364 0.6576
vt 0.9190 0.6533
vt 0.9291 0.6636
vt 0.9824 0.6619
vt 0.9822 0.6561
vt 0.9548 0.6198
vt 0.7037 0.6277
vt 0.6787 0.6657
vt 0.6789 0.6715
vt 0.7315 0.6699
vt 0.6273 0.4921
vt 0.6583 0.5199
vt 0.6637 0.5237
vt 0.8654 0.5196
vt 0.8732 0.5174
vt 0.9067 0.4865
vt 0.9101 0.4774
vt 0.6239 0.4865
vt 0.5718 0.5746
vt 0.9725 0.5950
vt 0.5665 0.5710
vt 0.9801 0.5903
vt 0.9651 0.6626
vt 0.9562 0.6889
vt 0.9703 0.6985
vt 0.9827 0.6703
vt 0.7835 0.6683
vt 0.7942 0.6905
vt 0.7675 0.6777
vt 0.7852 0.7028
vn -0.4173 -0.8370 -0.3539
vn -0.9725 -0.2144 -0.0907
vn -0.7671 0.5909 0.2498
vn -0.0000 0.9211 0.3894
vn 0.7671 0.5909 0.2498
vn 0.0061 0.0922 -0.9957
vn 0.9725 -0.2144 -0.0907
vn 0.4173 -0.8370 -0.3539
vn 0.9749 -0.2215 -0.0208
vn 0.0000 0.1004 -0.9949
vn 0.0026 0.0882 -0.9961
vn -0.0061 0.0922 -0.9957
vn 0.0052 0.0977 -0.9952
vn -0.0026 0.0882 -0.9961
vn -0.0052 0.0977 -0.9952
vn -0.1133 -0.1647 0.9798
vn -0.0000 0.9956 0.0936
vn -0.9749 -0.2215 -0.0208
vn 0.4339 -0.8970 -0.0843
vn 0.7818 0.6208 0.0584
vn -0.7818 0.6208 0.0584
vn -0.4339 -0.8970 -0.0843
vn -0.9560 -0.2345 0.1765
vn 0.1133 -0.1647 0.9798
vn -0.0728 -0.2253 0.9716
vn 0.0387 -0.0842 0.9957
vn -0.0000 -0.3055 0.9522
vn -0.0387 -0.0842 0.9957
vn 0.0728 -0.2253 0.9716
vn -0.2022 0.0761 -0.9764
vn 0.4370 -0.8890 0.1364
vn 0.7536 0.6119 -0.2403
vn -0.7767 0.6291 -0.0305
vn -0.3968 -0.8843 0.2459
vn 0.9730 -0.2146 -0.0850
vn -0.0135 0.9772 -0.2119
vn 0.4395 -0.8980 0.0215
vn -0.1285 0.0747 -0.9889
vn -0.1225 0.0588 -0.9907
vn -0.1228 0.0730 -0.9897
vn -0.1675 0.0177 -0.9857
vn -0.1334 0.0542 -0.9896
vn -0.1467 0.0486 -0.9880
vn 0.1562 -0.0921 0.9834
vn 0.5966 0.7715 -0.2209
vn -0.6219 0.7661 0.1620
vn -0.3816 -0.8855 0.2650
vn 0.8085 -0.2275 -0.5428
vn 0.0573 0.9189 0.3904
vn -0.9630 -0.2692 0.0130
vn 0.8952 -0.4457 0.0000
vn 0.0000 0.0000 1.0000
vn -0.8952 0.4457 -0.0000
vn 0.9393 0.3185 -0.1277
vn -0.4457 -0.8952 -0.0000
vn 0.4457 0.8952 0.0000
vn 0.1347 0.0000 0.9909
vn -0.9393 -0.3185 0.1277
vn 0.3156 -0.9479 -0.0429
vn -0.3156 0.9479 0.0429
vn 0.2640 0.9170 -0.2989
vn 0.0663 0.0937 0.9934
vn -0.2640 -0.9170 0.2989
vn 0.9517 -0.2891 -0.1032
vn -0.9517 0.2891 0.1032
vn 0.5553 -0.5755 -0.6004
vn 0.8977 -0.3832 0.2176
vn 0.4233 0.1808 0.8877
vn 0.0981 -0.4593 -0.8828
vn 0.8207 -0.5346 -0.2014
vn 0.7782 -0.1368 0.6130
vn 0.1805 0.0416 0.9827
vn -0.1447 -0.5986 -0.7879
vn 0.0205 -0.9935 0.1115
vn 0.1572 -0.4929 0.8558
vn -0.0657 -0.9316 -0.3576
vn 0.0974 -0.8421 0.5305
vn -0.4054 -0.4593 -0.7903
vn -0.8387 -0.5346 0.1034
vn -0.5096 -0.1368 0.8495
vn -0.7324 -0.5755 -0.3638
vn -0.7618 -0.3832 0.5224
vn -0.0802 0.1808 0.9802
vn -0.4233 -0.1808 -0.8877
vn -0.8977 0.3832 -0.2176
vn -0.5553 0.5755 0.6004
vn -0.7782 0.1368 -0.6130
vn -0.8207 0.5346 0.2014
vn -0.0981 0.4593 0.8828
vn -0.1805 -0.0416 -0.9827
vn -0.0974 0.8421 -0.5305
vn 0.0657 0.9316 0.3576
vn -0.1572 0.4929 -0.8558
vn -0.0205 0.9935 -0.1115
vn 0.1447 0.5986 0.7879
vn 0.7618 0.3832 -0.5224
vn 0.7324 0.5755 0.3638
vn 0.5096 0.1368 -0.8495
vn 0.8387 0.5346 -0.1034
vn 0.4054 0.4593 0.7903
vn 0.0802 -0.1808 -0.9802
vn 0.7570 -0.5340 -0.3765
vn 0.7463 -0.4123 0.5226
vn 0.0364 0.1036 0.9940
vn 0.4459 -0.3892 -0.8060
vn 0.8432 -0.5289 0.0967
vn 0.4764 -0.1963 0.8570
vn -0.2217 -0.0392 0.9743
vn 0.1879 -0.5320 -0.8257
vn -0.0073 -0.9995 0.0320
vn -0.1836 -0.5615 0.8069
vn 0.0971 -0.8992 -0.4266
vn -0.1042 -0.8829 0.4579
vn -0.0533 -0.3892 -0.9196
vn -0.8020 -0.5289 -0.2776
vn -0.8003 -0.1963 0.5666
vn -0.5196 -0.5340 -0.6669
vn -0.8989 -0.4123 0.1483
vn -0.4628 0.1036 0.8804
vn -0.0364 -0.1036 -0.9940
vn -0.7463 0.4123 -0.5226
vn -0.7570 0.5340 0.3765
vn -0.4764 0.1963 -0.8570
vn -0.8432 0.5289 -0.0967
vn -0.4459 0.3892 0.8060
vn 0.2217 0.0392 -0.9743
vn 0.1042 0.8829 -0.4579
vn -0.0971 0.8992 0.4266
vn 0.1836 0.5615 -0.8069
vn 0.0073 0.9995 -0.0320
vn -0.1879 0.5320 0.8257
vn 0.8989 0.4123 -0.1483
vn 0.5196 0.5340 0.6669
vn 0.8003 0.1963 -0.5666
vn 0.8020 0.5289 0.2776
vn 0.0533 0.3892 0.9196
vn 0.4628 -0.1036 -0.8804
vn -0.1876 -0.5988 -0.7786
vn -0.6071 -0.7622 -0.2248
vn 0.4911 -0.6612 -0.5671
vn 0.4911 -0.8631 0.1174
vn -0.1876 -0.9255 0.3289
vn -0.9822 -0.1799 -0.0531
vn -0.3035 0.0844 -0.9491
vn 0.7946 -0.0166 -0.6068
vn 0.7946 -0.3433 0.5007
vn -0.3035 -0.4442 0.8429
vn -0.7946 0.3433 -0.5007
vn 0.3035 0.4442 -0.8429
vn 0.9822 0.1799 0.0531
vn 0.3035 -0.0844 0.9491
vn -0.7946 0.0166 0.6068
vn -0.4911 0.8631 -0.1174
vn 0.1876 0.9255 -0.3289
vn 0.6071 0.7622 0.2248
vn 0.1876 0.5988 0.7786
vn -0.4911 0.6612 0.5671
vn 0.9532 -0.2894 -0.0872
vn -0.3889 0.2702 0.8808
vn 0.1344 -0.2578 0.9568
vn -0.3899 -0.2614 0.8830
vn -0.9186 -0.2900 -0.2686
vn 0.5106 -0.2884 -0.8100
vn 0.8120 -0.2870 0.5083
vn -0.9292 -0.2847 0.2356
vn -0.2013 -0.2878 -0.9363
vn -0.4938 0.8128 -0.3091
vn 0.1341 0.2665 0.9545
vn 0.5090 0.2980 -0.8075
vn -0.9157 0.2996 -0.2678
vn -0.9264 0.2942 0.2349
vn 0.9503 0.2991 -0.0869
vn 0.8095 0.2965 0.5068
vn -0.2006 0.2974 -0.9334
vn -0.8760 0.4280 0.2221
vn -0.3095 0.8142 0.4911
vn 0.5550 0.8159 0.1623
vn 0.2510 0.7835 -0.5684
vn -0.0872 0.7790 -0.6209
vn -0.5766 0.8153 0.0527
vn 0.1222 0.8136 0.5684
vn 0.5680 0.8103 -0.1440
vn 0.1182 0.7121 0.6920
vn 0.7521 0.4612 0.4708
vn 0.5082 0.3029 -0.8062
vn -0.8898 0.3749 -0.2602
vn -0.3563 0.4713 0.8068
vn 0.1224 0.4749 0.8715
vn 0.9143 0.3963 -0.0836
vn -0.2014 0.2850 -0.9371
vn 0.1049 0.9175 0.3837
vn 0.8571 0.3421 -0.3850
vn -0.2093 -0.0898 -0.9737
vn -0.9031 0.4284 -0.0308
vn 0.7154 0.5362 0.4479
vn 0.5332 0.0008 -0.8460
vn -0.8944 0.3629 -0.2615
vn -0.3192 0.6128 0.7229
vn -0.0890 0.1980 -0.9761
vn 0.8162 -0.1262 -0.5638
vn -0.1889 -0.4438 -0.8760
vn -0.9724 0.1507 -0.1783
vn -0.0000 -0.6114 0.7913
vn 0.0000 -0.6114 -0.7913
vn -0.0000 0.7486 0.6630
vn 0.0000 0.0000 -1.0000
vn 0.0000 0.7486 -0.6631
vn 1.0000 -0.0000 0.0000
vn 0.0000 1.0000 0.0000
vn 0.0000 0.9824 -0.1868
vn -0.0000 0.9879 0.1554
vn 0.0000 0.9879 -0.1554
vn 0.0000 -1.0000 -0.0000
vn -0.0000 -0.9824 0.1868
vn 0.0000 -0.9824 -0.1868
vn -1.0000 -0.0000 0.0000
vn 0.0000 -0.7486 0.6630
vn 0.0000 0.9824 0.1868
vn 0.0000 -0.9879 -0.1554
vn 0.0000 0.6114 -0.7913
vn 0.0000 0.6114 0.7913
vn 0.0000 -0.9879 0.1554
vn 0.0000 -0.7486 -0.6630
vn -0.4092 0.9124 -0.0000
vn 0.9990 0.0448 0.0000
vn -0.0000 0.5763 0.8172
vn 0.0000 0.5763 -0.8172
vn -0.0000 0.8781 0.4785
vn 0.0000 0.8781 -0.4785
vn 0.0000 -0.6783 0.7348
vn 0.0000 -1.0000 0.0080
vn 0.0000 -0.3977 -0.9175
vn -0.0000 -0.9983 0.0581
vn 0.9982 0.0597 -0.0000
vn -0.9980 0.0628 0.0010
vn 0.9668 0.0628 0.2475
vn -0.0077 -1.0000 0.0000
vn -0.9987 0.0514 -0.0019
vn 0.0000 0.0704 0.9975
vn 0.0000 0.9856 0.1690
vn -0.0000 0.1144 0.9934
vn 0.0018 0.0693 0.9976
vn -0.0018 0.0693 0.9976
vn -0.9356 0.0601 0.3479
vn 0.9993 0.0385 -0.0022
vn 0.9989 0.0467 -0.0017
vn -0.9991 0.0424 -0.0025
vn 0.0000 0.9983 -0.0581
vn -0.0000 0.0923 0.9957
vn -0.5000 0.8660 -0.0000
vn -0.0000 0.9268 0.3755
vn 0.5000 0.8660 0.0000
vn 0.0114 0.6696 0.7427
vn 0.0045 0.5235 -0.8520
vn -0.0106 -0.9999 0.0000
vn 0.0053 1.0000 0.0000
vn -0.0089 -0.5236 -0.8519
vn 0.0117 0.9999 0.0000
vn -0.0234 -0.9997 0.0000
vn -0.6162 0.3914 -0.6834
vn 0.0000 0.7055 -0.7087
vn 0.6553 0.3151 -0.6865
vn -0.0000 -0.9993 0.0372
vn 0.0000 0.9993 -0.0372
vn 0.9698 0.0149 0.2434
vn 0.0000 0.0729 -0.9973
vn -0.9695 0.0432 0.2413
vn 0.9658 0.0160 0.2589
vn -0.9676 -0.0037 0.2524
vn 0.9675 -0.0083 0.2527
vn -0.0000 -0.9521 0.3058
vn -0.9654 0.0442 0.2568
vn 0.9676 0.0391 0.2495
vn -0.9666 0.0673 0.2471
vn -0.9678 0.0200 0.2509
vn -0.0000 0.0581 0.9983
vn -0.0000 0.9971 0.0767
vn -0.0000 -0.9814 0.1919
vn 0.9357 0.0564 0.3482
vn -0.9992 -0.0404 0.0024
vn 0.9990 -0.0445 0.0026
vn -0.0867 -0.9691 0.2309
vn -0.9924 0.0297 -0.1194
vn -0.9848 0.0514 0.1661
vn -0.0263 -0.9694 0.2442
vn 0.9914 0.0088 -0.1303
vn -0.9951 0.0236 0.0962
vn -0.0313 0.9854 0.1672
vn 0.9999 -0.0081 -0.0128
vn -0.9916 0.0640 -0.1126
vn 0.0565 0.9821 0.1796
vn 0.9857 -0.0620 0.1570
vn -0.9981 0.0186 -0.0586
vn -0.0304 0.9862 0.1625
vn 0.9937 -0.0394 0.1047
vn 0.9899 -0.0314 0.1380
vn 0.3615 0.9091 0.2069
vn 0.9969 0.0788 -0.0066
vn 0.0937 0.5150 -0.8520
vn 0.0042 -0.0710 0.9975
vn 0.0536 -0.9145 0.4010
vn 0.1209 0.9657 0.2297
vn 0.2328 -0.7464 -0.6235
vn 0.0350 -0.5973 0.8012
vn 0.3647 0.5156 -0.7754
vn 0.4940 -0.6613 -0.5646
vn -0.0334 -0.9161 0.3995
vn -0.0485 -0.0740 0.9961
vn -0.2658 -0.5738 0.7747
vn 0.9446 -0.1452 0.2943
vn -0.2615 0.9635 -0.0575
vn -0.9915 0.1281 -0.0234
vn -0.0249 0.9996 -0.0151
vn -0.1756 -0.8739 -0.4533
vn -0.0050 -0.2358 0.9718
vn -0.0214 0.2261 -0.9739
vn 0.0195 0.3461 0.9380
vn -0.0260 -0.7008 0.7128
vn -0.1549 0.2330 -0.9601
vn -0.2617 -0.8124 -0.5211
vn -0.9985 0.0551 0.0042
vn -0.0566 -0.6992 0.7127
vn -0.0570 0.3493 0.9353
vn 0.2235 -0.2094 0.9519
vn -0.0000 0.0595 -0.9982
vn -0.0000 -0.9968 -0.0796
vn 0.0000 0.9992 -0.0410
vn 0.0000 -0.0267 -0.9996
vn -0.0000 -0.0152 0.9999
vn 0.0000 -0.0025 1.0000
vn 0.0000 0.9873 0.1586
vn -0.0000 -0.9988 -0.0482
vn 0.1103 -0.9939 -0.0067
vn 0.1681 0.9858 0.0067
vn -0.1537 0.9881 0.0011
vn -0.1429 -0.9897 -0.0011
vn 1.0000 0.0057 0.0000
vn -0.9999 -0.0137 -0.0000
vn 0.9560 -0.2345 0.1765
vn 0.2022 0.0761 -0.9764
vn -0.4370 -0.8890 0.1364
vn -0.7536 0.6119 -0.2403
vn 0.7767 0.6291 -0.0305
vn 0.3968 -0.8843 0.2459
vn -0.9730 -0.2146 -0.0850
vn 0.0135 0.9772 -0.2119
vn -0.4395 -0.8980 0.0215
vn 0.1285 0.0747 -0.9889
vn 0.1225 0.0588 -0.9907
vn 0.1228 0.0730 -0.9897
vn 0.1675 0.0177 -0.9857
vn 0.1334 0.0542 -0.9896
vn 0.1467 0.0486 -0.9880
vn -0.1562 -0.0921 0.9834
vn -0.5966 0.7715 -0.2210
vn 0.6219 0.7661 0.1620
vn 0.3816 -0.8855 0.2650
vn -0.8085 -0.2275 -0.5428
vn -0.0573 0.9189 0.3904
vn 0.9630 -0.2692 0.0130
vn -0.8952 -0.4457 -0.0000
vn 0.8952 0.4457 0.0000
vn -0.9393 0.3185 -0.1277
vn 0.4457 -0.8952 0.0000
vn -0.4457 0.8952 -0.0000
vn -0.1347 0.0000 0.9909
vn 0.9393 -0.3185 0.1277
vn -0.3156 -0.9479 -0.0429
vn 0.3156 0.9479 0.0429
vn -0.2640 0.9170 -0.2989
vn -0.0663 0.0937 0.9934
vn 0.2640 -0.9170 0.2989
vn -0.9517 -0.2891 -0.1032
vn 0.9517 0.2891 0.1032
vn -0.0000 0.7486 0.6631
vn 0.0000 -0.7486 0.6631
vn 0.4092 0.9124 0.0000
vn -0.9990 0.0448 -0.0000
usemtl None
s off
f 1/1/1 2/2/1 4/3/1 3/4/1
f 3/5/2 4/6/2 6/7/2 5/8/2
f 5/8/3 6/7/3 8/9/3 7/10/3
f 7/10/4 8/9/4 10/11/4 9/12/4
f 9/12/5 10/11/5 12/13/5 11/14/5
f 14/15/6 12/16/6 20/17/6 21/18/6
f 11/14/7 12/13/7 14/19/7 13/20/7
f 13/20/8 14/19/8 2/2/8 1/1/8
f 21/18/9 20/17/9 27/21/9 28/22/9
f 10/23/10 8/24/10 18/25/10 19/26/10
f 2/27/11 14/15/11 21/18/11 16/28/11
f 6/29/12 4/30/12 15/31/12 17/32/12
f 12/16/13 10/23/13 19/26/13 20/17/13
f 4/33/14 2/27/14 16/28/14 15/34/14
f 8/24/15 6/29/15 17/32/15 18/25/15
f 27/21/16 26/35/16 33/36/16 34/37/16
f 19/26/17 18/25/17 25/38/17 26/35/17
f 17/32/18 15/31/18 22/39/18 24/40/18
f 16/28/19 21/18/19 28/22/19 23/41/19
f 20/17/20 19/26/20 26/35/20 27/21/20
f 18/25/21 17/32/21 24/40/21 25/38/21
f 15/34/22 16/28/22 23/41/22 22/42/22
f 31/43/23 29/44/23 36/45/23 38/46/23
f 25/38/24 24/40/24 31/47/24 32/48/24
f 22/42/25 23/41/25 30/49/25 29/50/25
f 28/22/26 27/21/26 34/37/26 35/51/26
f 26/35/27 25/38/27 32/48/27 33/36/27
f 24/40/28 22/39/28 29/52/28 31/47/28
f 23/41/29 28/22/29 35/51/29 30/49/29
f 42/53/30 41/54/30 48/55/30 49/56/30
f 30/57/31 35/58/31 42/59/31 37/60/31
f 34/61/32 33/62/32 40/63/32 41/64/32
f 32/65/33 31/43/33 38/46/33 39/66/33
f 29/67/34 30/57/34 37/60/34 36/68/34
f 35/58/35 34/61/35 41/64/35 42/59/35
f 33/62/36 32/65/36 39/66/36 40/63/36
f 44/69/37 49/56/37 56/70/37 51/71/37
f 40/72/38 39/73/38 46/74/38 47/75/38
f 38/76/39 36/77/39 43/78/39 45/79/39
f 37/80/40 42/53/40 49/56/40 44/69/40
f 41/54/41 40/72/41 47/75/41 48/55/41
f 39/73/42 38/76/42 45/79/42 46/74/42
f 36/81/43 37/80/43 44/69/43 43/82/43
f 50/83/44 51/84/44 56/85/44 55/86/44 54/87/44 53/88/44 52/89/44
f 48/55/45 47/75/45 54/90/45 55/91/45
f 46/74/46 45/79/46 52/92/46 53/93/46
f 43/82/47 44/69/47 51/71/47 50/94/47
f 49/56/48 48/55/48 55/91/48 56/70/48
f 47/75/49 46/74/49 53/93/49 54/90/49
f 45/79/50 43/78/50 50/95/50 52/92/50
f 58/96/51 60/97/51 59/98/51 57/99/51
f 60/100/52 64/101/52 63/102/52 59/103/52
f 64/104/53 62/105/53 61/106/53 63/107/53
f 66/108/54 68/109/54 67/110/54 65/111/54
f 57/99/55 59/98/55 63/107/55 61/106/55
f 62/105/56 64/104/56 60/97/56 58/96/56
f 68/112/57 72/113/57 71/114/57 67/115/57
f 72/116/58 70/117/58 69/118/58 71/119/58
f 65/111/59 67/110/59 71/119/59 69/118/59
f 70/117/60 72/116/60 68/109/60 66/108/60
f 74/120/61 76/121/61 75/122/61 73/123/61
f 76/124/62 80/125/62 79/126/62 75/127/62
f 80/128/63 78/129/63 77/130/63 79/131/63
f 73/123/64 75/122/64 79/131/64 77/130/64
f 78/129/65 80/128/65 76/121/65 74/120/65
f 85/132/66 84/133/66 89/134/66 90/135/66
f 83/136/67 82/137/67 87/138/67 88/139/67
f 81/140/68 91/141/68 86/142/68
f 102/143/69 85/132/69 90/135/69
f 84/133/70 83/144/70 88/145/70 89/134/70
f 82/137/71 81/146/71 86/147/71 87/138/71
f 86/142/72 91/141/72 92/148/72
f 102/143/73 90/135/73 96/149/73
f 89/134/74 88/145/74 94/150/74 95/151/74
f 87/138/75 86/147/75 92/152/75 93/153/75
f 90/135/76 89/134/76 95/151/76 96/149/76
f 88/139/77 87/138/77 93/153/77 94/154/77
f 102/143/78 96/149/78 101/155/78
f 95/151/79 94/150/79 99/156/79 100/157/79
f 93/153/80 92/152/80 97/158/80 98/159/80
f 96/149/81 95/151/81 100/157/81 101/155/81
f 94/154/82 93/153/82 98/159/82 99/160/82
f 92/148/83 91/141/83 97/161/83
f 102/143/84 101/155/84 107/162/84
f 100/157/85 99/156/85 105/163/85 106/164/85
f 98/159/86 97/158/86 103/165/86 104/166/86
f 101/155/87 100/157/87 106/164/87 107/162/87
f 99/160/88 98/159/88 104/166/88 105/167/88
f 97/161/89 91/141/89 103/168/89
f 102/143/90 107/162/90 112/169/90
f 106/164/91 105/163/91 110/170/91 111/171/91
f 104/166/92 103/165/92 108/172/92 109/173/92
f 107/162/93 106/164/93 111/171/93 112/169/93
f 105/167/94 104/166/94 109/173/94 110/174/94
f 103/168/95 91/141/95 108/175/95
f 111/171/96 110/170/96 83/144/96 84/133/96
f 109/173/97 108/172/97 81/146/97 82/137/97
f 112/169/98 111/171/98 84/133/98 85/132/98
f 110/174/99 109/173/99 82/137/99 83/136/99
f 108/175/100 91/141/100 81/140/100
f 102/143/101 112/169/101 85/132/101
f 117/176/102 116/177/102 121/178/102 122/179/102
f 115/180/103 114/181/103 119/182/103 120/183/103
f 113/184/104 123/185/104 118/186/104
f 134/187/105 117/176/105 122/179/105
f 116/177/106 115/188/106 120/189/106 121/178/106
f 114/181/107 113/190/107 118/191/107 119/182/107
f 118/186/108 123/185/108 124/192/108
f 134/187/109 122/179/109 128/193/109
f 121/178/110 120/189/110 126/194/110 127/195/110
f 119/182/111 118/191/111 124/196/111 125/197/111
f 122/179/112 121/178/112 127/195/112 128/193/112
f 120/183/113 119/182/113 125/197/113 126/198/113
f 134/187/114 128/193/114 133/199/114
f 127/195/115 126/194/115 131/200/115 132/201/115
f 125/197/116 124/196/116 129/202/116 130/203/116
f 128/193/117 127/195/117 132/201/117 133/199/117
f 126/198/118 125/197/118 130/203/118 131/204/118
f 124/192/119 123/185/119 129/205/119
f 134/187/120 133/199/120 139/206/120
f 132/201/121 131/200/121 137/207/121 138/208/121
f 130/203/122 129/202/122 135/209/122 136/210/122
f 133/199/123 132/201/123 138/208/123 139/206/123
f 131/204/124 130/203/124 136/210/124 137/211/124
f 129/205/125 123/185/125 135/212/125
f 134/187/126 139/206/126 144/213/126
f 138/208/127 137/207/127 142/214/127 143/215/127
f 136/210/128 135/209/128 140/216/128 141/217/128
f 139/206/129 138/208/129 143/215/129 144/213/129
f 137/211/130 136/210/130 141/217/130 142/218/130
f 135/212/131 123/185/131 140/219/131
f 143/215/132 142/214/132 115/188/132 116/177/132
f 141/217/133 140/216/133 113/190/133 114/181/133
f 144/213/134 143/215/134 116/177/134 117/176/134
f 142/218/135 141/217/135 114/181/135 115/180/135
f 140/219/136 123/185/136 113/184/136
f 134/187/137 144/213/137 117/176/137
f 145/220/138 146/221/138 147/222/138
f 146/221/139 145/220/139 150/223/139
f 145/220/140 147/222/140 148/224/140
f 145/225/141 148/226/141 149/227/141
f 145/225/142 149/227/142 150/228/142
f 146/221/143 150/223/143 155/229/143
f 147/222/144 146/221/144 151/230/144
f 148/224/145 147/222/145 152/231/145
f 149/227/146 148/226/146 153/232/146
f 150/228/147 149/227/147 154/233/147
f 146/221/148 155/229/148 151/230/148
f 147/222/149 151/230/149 152/231/149
f 148/226/150 152/234/150 153/232/150
f 149/227/151 153/232/151 154/233/151
f 150/228/152 154/233/152 155/235/152
f 151/230/153 155/229/153 156/236/153
f 152/231/154 151/230/154 156/236/154
f 153/232/155 152/234/155 156/237/155
f 154/233/156 153/232/156 156/237/156
f 155/235/157 154/233/157 156/237/157
f 163/238/158 164/239/158 157/240/158 158/241/158
f 172/242/159 160/243/159 179/244/159 180/245/159
f 161/246/160 162/247/160 159/248/160 160/243/160
f 168/249/161 161/246/161 160/243/161 172/242/161
f 166/250/162 167/251/162 171/252/162 170/253/162
f 164/239/163 165/254/163 169/255/163 157/240/163
f 162/247/164 163/238/164 158/241/164 159/248/164
f 167/251/165 168/249/165 172/242/165 171/252/165
f 165/254/166 166/250/166 170/253/166 169/255/166
f 178/256/167 177/257/167 185/258/167 186/259/167
f 160/243/168 159/248/168 178/260/168 179/244/168
f 157/240/169 169/255/169 175/261/169 176/262/169
f 170/253/170 171/252/170 174/263/170 173/264/170
f 171/252/171 172/242/171 180/245/171 174/263/171
f 158/241/172 157/240/172 176/262/172 177/265/172
f 159/248/173 158/241/173 177/265/173 178/260/173
f 169/255/174 170/253/174 173/264/174 175/261/174
f 182/266/175 188/267/175 196/268/175 190/269/175
f 176/270/176 175/271/176 183/272/176 184/273/176
f 173/274/177 174/275/177 182/276/177 181/277/177
f 180/278/178 179/279/178 187/280/178 188/281/178
f 179/279/179 178/256/179 186/259/179 187/280/179
f 177/257/180 176/270/180 184/273/180 185/258/180
f 175/271/181 173/274/181 181/277/181 183/272/181
f 174/275/182 180/278/182 188/281/182 182/276/182
f 195/282/183 194/283/183 201/284/183 204/285/183
f 186/286/184 185/287/184 193/288/184 194/283/184
f 184/289/185 183/290/185 191/291/185 192/292/185
f 181/293/186 182/266/186 190/269/186 189/294/186
f 188/267/187 187/295/187 195/282/187 196/268/187
f 187/295/188 186/286/188 194/283/188 195/282/188
f 185/287/189 184/289/189 192/292/189 193/288/189
f 183/290/190 181/293/190 189/294/190 191/291/190
f 204/285/191 201/284/191 203/296/191 202/297/191
f 193/288/192 192/292/192 199/298/192 201/284/192
f 191/291/193 189/294/193 197/299/193 199/298/193
f 190/269/194 196/268/194 204/285/194 197/299/194
f 194/283/195 193/288/195 201/284/195
f 192/292/196 191/291/196 199/298/196
f 189/294/197 190/269/197 197/299/197
f 196/268/198 195/282/198 204/285/198
f 200/300/199 202/297/199 203/296/199 198/301/199
f 201/284/200 199/298/200 198/301/200 203/296/200
f 199/298/201 197/299/201 200/300/201 198/301/201
f 197/299/202 204/285/202 202/297/202 200/300/202
f 208/302/203 207/303/203 209/304/203 212/305/203
f 205/306/204 206/307/204 211/308/204 210/309/204
f 216/310/205 213/311/205 217/312/205 220/313/205
f 212/305/52 209/304/52 213/311/52 216/310/52
f 210/309/206 211/308/206 215/314/206 214/315/206
f 214/315/207 215/314/207 219/316/207 218/317/207
f 207/318/208 225/319/208 226/320/208 205/321/208 210/322/208 214/323/208 218/324/208 222/325/208 221/326/208 217/327/208 213/328/208 209/329/208
f 222/330/209 223/331/209 224/332/209 221/333/209
f 231/334/210 232/335/210 245/336/210 244/337/210
f 220/313/211 217/312/211 221/333/211 224/332/211
f 218/317/212 219/316/212 223/331/212 222/330/212
f 226/338/213 225/339/213 228/340/213 227/341/213
f 207/303/214 208/302/214 228/340/214 225/339/214
f 206/307/215 205/306/215 226/338/215 227/341/215
f 206/342/216 227/343/216 230/344/216 229/345/216
f 227/343/216 228/346/216 231/347/216 230/344/216
f 228/346/216 208/348/216 232/349/216 231/347/216
f 208/348/216 212/350/216 233/351/216 232/349/216
f 212/350/216 216/352/216 234/353/216 233/351/216
f 216/352/216 220/354/216 235/355/216 234/353/216
f 220/354/216 224/356/216 236/357/216 235/355/216
f 224/356/216 223/358/216 237/359/216 236/357/216
f 223/358/216 219/360/216 238/361/216 237/359/216
f 219/360/216 215/362/216 239/363/216 238/361/216
f 215/362/216 211/364/216 240/365/216 239/363/216
f 211/364/216 206/342/216 229/345/216 240/365/216
f 241/366/216 242/367/216 244/368/216 245/369/216 246/370/216 247/371/216 248/372/216 249/373/216 250/374/216 251/375/216 252/376/216 243/377/216
f 238/378/217 239/379/217 252/380/217 251/381/217
f 229/382/218 230/383/218 242/384/218 241/385/218
f 235/386/219 236/387/219 249/388/219 248/389/219
f 232/335/220 233/390/220 246/391/220 245/336/220
f 239/379/52 240/392/52 243/393/52 252/380/52
f 240/392/221 229/382/221 241/385/221 243/393/221
f 236/387/213 237/394/213 250/395/213 249/388/213
f 233/390/206 234/396/206 247/397/206 246/391/206
f 230/383/209 231/334/209 244/337/209 242/384/209
f 237/394/222 238/378/222 251/381/222 250/395/222
f 234/396/223 235/386/223 248/389/223 247/397/223
f 259/398/224 260/399/224 264/400/224 263/401/224
f 272/402/216 270/403/216 268/404/216 256/405/216 260/406/216 259/407/216 254/408/216 267/409/216 269/410/216 271/411/216
f 255/412/225 265/413/225 266/414/225 253/415/225 258/416/225 262/417/225 261/418/225 257/419/225
f 256/420/226 255/412/226 257/419/226 260/399/226
f 253/415/227 254/421/227 259/398/227 258/416/227
f 262/417/209 263/401/209 264/400/209 261/418/209
f 260/399/228 257/419/228 261/418/228 264/400/228
f 258/416/229 259/398/229 263/401/229 262/417/229
f 255/412/52 256/420/52 268/422/52 265/413/52
f 254/421/206 253/415/206 266/414/206 267/423/206
f 271/424/230 269/425/230 273/426/230 275/427/230
f 272/428/231 271/424/231 275/427/231 276/429/231
f 272/428/232 276/429/232 274/430/232 270/431/232
f 274/430/216 276/429/216 275/427/216 273/426/216
f 293/432/233 294/433/233 301/434/233 302/435/233
f 278/436/234 453/437/234 452/438/234 451/439/234 450/440/234 449/441/234 280/442/234 285/443/234 279/444/234 277/445/234
f 284/446/235 465/447/235 466/448/235 467/449/235 468/450/235 469/451/235 282/452/235 281/453/235 283/454/235 286/455/235
f 360/456/236 357/457/236 378/458/236 379/459/236
f 313/460/237 314/461/237 317/462/237 318/463/237
f 288/464/238 289/465/238 298/466/238 345/467/238 346/468/238 295/469/238
f 344/470/239 369/471/239 372/472/239 343/473/239 359/474/239 358/475/239
f 283/476/239 289/477/239 288/478/239 286/479/239
f 361/480/240 362/481/240 381/482/240 382/483/240
f 279/484/239 285/485/239 287/486/239 290/487/239
f 280/488/241 284/489/241 292/490/241 291/491/241
f 284/489/242 286/479/242 293/492/242 292/490/242
f 285/485/243 280/488/243 291/491/243 294/493/243
f 394/494/244 395/495/244 400/496/244 398/497/244
f 294/433/245 291/498/245 299/499/245 301/434/245
f 290/500/246 287/501/246 296/502/246 348/503/246 347/504/246 297/505/246
f 292/506/247 293/432/247 302/435/247 300/507/247
f 291/498/248 292/506/248 300/507/248 299/499/248
f 285/485/249 294/493/249 293/492/249 286/479/249 288/478/249 287/486/249
f 282/508/250 284/509/250 304/510/250 303/511/250
f 284/509/251 280/512/251 305/513/251 304/510/251
f 280/512/252 278/514/252 306/515/252 305/513/252
f 502/516/208 510/517/208 509/518/208 501/519/208 481/520/208 310/521/208 305/522/208 306/523/208 340/524/208 483/525/208 482/526/208
f 306/527/206 303/528/206 337/529/206 335/530/206 339/531/206 340/532/206
f 308/533/253 307/534/253 309/535/253 310/536/253
f 304/537/52 305/538/52 312/539/52 311/540/52
f 325/541/254 426/542/254 429/543/254 430/544/254 425/545/254 418/546/254 422/547/254 421/548/254 417/549/254 410/550/254 414/551/254 413/552/254 409/553/254 324/554/254 322/555/254 321/556/254
f 310/557/52 309/558/52 314/559/52 313/560/52
f 327/561/208 328/562/208 325/563/208 326/564/208
f 327/565/52 444/566/52 446/567/52 445/568/52 443/569/52 436/570/52 438/571/52 437/572/52 435/573/52 330/574/52 318/575/52 317/576/52
f 330/577/255 435/578/255 433/579/255 323/580/255
f 326/581/208 325/582/208 321/583/208 320/584/208
f 311/585/209 312/586/209 315/587/209 316/588/209
f 334/589/52 331/590/52 332/591/52 333/592/52
f 312/586/216 313/460/216 318/463/216 330/593/216 329/594/216 315/587/216
f 324/595/216 323/596/216 319/597/216 322/598/216
f 314/461/208 311/585/208 316/588/208 328/562/208 327/561/208 317/462/208
f 316/599/52 315/600/52 329/601/52 411/602/52 415/603/52 416/604/52 412/605/52 419/606/52 423/607/52 424/608/52 420/609/52 427/610/52 432/611/52 431/612/52 428/613/52 328/614/52
f 329/594/216 330/593/216 323/615/216 324/616/216
f 320/584/208 321/583/208 334/589/208 333/592/208
f 309/558/52 304/537/52 311/540/52 314/559/52
f 328/617/256 428/618/256 426/619/256 325/620/256
f 305/538/52 310/557/52 313/560/52 312/539/52
f 323/621/257 433/622/257 439/623/257 440/624/257 434/625/257 441/626/257 447/627/257 448/628/257 442/629/257 326/630/257 320/631/257 319/632/257
f 322/598/216 319/597/216 332/591/216 331/590/216
f 321/633/258 322/634/258 331/635/258 334/636/258
f 319/597/259 320/584/259 333/592/259 332/591/259
f 335/637/209 336/638/209 307/639/209 308/640/209 338/641/209 339/642/209
f 337/529/260 336/643/260 335/530/260
f 278/514/261 282/508/261 303/511/261 306/515/261
f 338/644/262 340/532/262 339/531/262
f 289/465/263 290/500/263 297/505/263 352/645/263 351/646/263 298/466/263
f 287/501/264 288/464/264 295/469/264 349/647/264 350/648/264 296/502/264
f 356/649/265 353/650/265 374/651/265 375/652/265
f 357/457/240 358/653/240 377/654/240 378/458/240
f 279/484/239 290/487/239 289/477/239 283/476/239
f 278/655/266 277/656/266 281/657/266 282/658/266
f 353/650/240 354/659/240 373/660/240 374/651/240
f 279/661/213 283/662/213 281/663/213 277/664/213
f 350/665/239 349/666/239 354/667/239 353/668/239
f 296/669/239 350/665/239 353/668/239 356/670/239 342/671/239 344/470/239 348/672/239
f 346/673/239 366/674/239 365/675/239 355/676/239 354/667/239 349/666/239 295/677/239
f 348/672/239 344/470/239 358/475/239 357/678/239
f 343/473/239 347/679/239 360/680/239 359/474/239
f 347/679/239 348/672/239 357/678/239 360/680/239
f 351/681/239 352/682/239 364/683/239 363/684/239
f 362/685/239 368/686/239 367/687/239 345/688/239 298/689/239 351/681/239 363/684/239
f 346/673/239 345/688/239 367/687/239 366/674/239
f 343/473/239 341/690/239 361/691/239 364/683/239 352/682/239 297/692/239 347/679/239
f 344/470/239 342/671/239 370/693/239 369/471/239
f 362/685/239 361/691/239 341/690/239 371/694/239 370/693/239 342/671/239 356/670/239 355/676/239 365/675/239 368/686/239
f 341/690/239 343/473/239 372/472/239 371/694/239
f 374/695/239 373/696/239 376/697/239 375/698/239
f 378/699/239 377/700/239 380/701/239 379/702/239
f 382/703/239 381/704/239 384/705/239 383/706/239
f 386/707/239 385/708/239 388/709/239 387/710/239
f 390/711/239 389/712/239 392/713/239 391/714/239
f 365/715/240 366/716/240 385/717/240 386/718/240
f 354/659/267 355/719/267 376/720/267 373/660/267
f 364/721/268 361/480/268 382/483/268 383/722/268
f 369/723/240 370/724/240 389/725/240 390/726/240
f 358/653/269 359/727/269 380/728/269 377/654/269
f 368/729/270 365/715/270 386/718/270 387/730/270
f 355/719/271 356/649/271 375/652/271 376/720/271
f 362/481/272 363/731/272 384/732/272 381/482/272
f 372/733/273 369/723/273 390/726/273 391/734/273
f 359/727/271 360/456/271 379/459/271 380/728/271
f 366/716/274 367/735/274 388/736/274 385/717/274
f 363/731/271 364/721/271 383/722/271 384/732/271
f 370/724/275 371/737/275 392/738/275 389/725/275
f 367/735/271 368/729/271 387/730/271 388/736/271
f 371/737/271 372/733/271 391/734/271 392/738/271
f 299/739/276 300/740/276 394/741/276 393/742/276
f 300/740/276 302/743/276 395/744/276 394/741/276
f 302/743/276 301/745/276 396/746/276 395/744/276
f 301/745/276 299/739/276 393/742/276 396/746/276
f 397/747/276 398/748/276 402/749/276 401/750/276
f 393/751/277 394/494/277 398/497/277 397/752/277
f 395/495/278 396/753/278 399/754/278 400/496/278
f 396/753/279 393/751/279 397/752/279 399/754/279
f 404/755/248 403/756/248 407/757/248 408/758/248
f 400/759/276 399/760/276 403/761/276 404/762/276
f 399/760/276 397/747/276 401/750/276 403/761/276
f 398/748/276 400/759/276 404/762/276 402/749/276
f 405/763/276 406/764/276 408/765/276 407/766/276
f 403/756/280 401/767/280 405/768/280 407/757/280
f 402/769/281 404/755/281 408/758/281 406/770/281
f 401/767/233 402/769/233 406/770/233 405/768/233
f 448/771/282 447/772/282 445/773/282 446/774/282
f 445/773/283 447/772/283 441/775/283 443/776/283
f 409/777/256 411/778/256 329/779/256 324/780/256
f 437/781/284 439/782/284 433/579/284 435/578/284
f 439/782/285 437/781/285 438/783/285 440/784/285
f 440/784/286 438/783/286 436/785/286 434/786/286
f 417/787/256 419/788/256 412/789/256 410/790/256
f 413/791/287 415/792/287 411/778/287 409/777/287
f 414/793/288 416/794/288 415/792/288 413/791/288
f 410/790/289 412/789/289 416/794/289 414/793/289
f 425/795/256 427/796/256 420/797/256 418/798/256
f 421/799/290 423/800/290 419/788/290 417/787/290
f 422/801/291 424/802/291 423/800/291 421/799/291
f 418/798/292 420/797/292 424/802/292 422/801/292
f 434/786/255 436/785/255 443/776/255 441/775/255
f 425/795/293 430/803/293 432/804/293 427/796/293
f 442/805/255 444/806/255 327/807/255 326/808/255
f 430/803/294 429/809/294 431/810/294 432/804/294
f 429/809/295 426/619/295 428/618/295 431/810/295
f 448/771/296 446/774/296 444/806/296 442/805/296
f 460/811/297 455/812/297 461/813/297 464/814/297
f 280/442/298 449/441/298 454/815/298 453/437/298 278/436/298
f 453/816/299 454/817/299 460/811/299 459/818/299
f 451/819/300 452/820/300 458/821/300 457/822/300
f 449/823/301 450/824/301 456/825/301 455/826/301
f 454/817/302 449/827/302 455/812/302 460/811/302
f 452/828/303 453/816/303 459/818/303 458/829/303
f 450/824/304 451/819/304 457/822/304 456/825/304
f 459/818/305 460/811/305 464/814/305 463/830/305
f 458/829/306 459/818/306 463/830/306 462/831/306
f 456/825/307 461/832/307 455/826/307
f 458/821/308 462/833/308 457/822/308
f 457/822/309 462/833/309 461/832/309 456/825/309
f 462/834/310 463/835/310 464/836/310 461/837/310
f 471/838/311 476/839/311 480/840/311 477/841/311
f 282/452/312 469/451/312 470/842/312 465/447/312 284/446/312
f 465/843/313 470/844/313 476/839/313 471/838/313
f 469/845/314 468/846/314 474/847/314 475/848/314
f 467/849/315 466/850/315 472/851/315 473/852/315
f 470/844/316 469/845/316 475/848/316 476/839/316
f 468/853/317 467/849/317 473/852/317 474/854/317
f 466/850/318 465/855/318 471/856/318 472/851/318
f 476/839/319 475/848/319 479/857/319 480/840/319
f 475/848/320 474/847/320 478/858/320 479/857/320
f 478/859/321 477/860/321 480/861/321 479/862/321
f 471/856/322 477/863/322 472/851/322
f 474/854/323 473/852/323 478/864/323
f 472/851/324 477/863/324 478/864/324 473/852/324
f 310/521/208 481/520/208 484/865/208 483/525/208 340/524/208 338/866/208 308/867/208
f 483/868/325 484/869/325 496/870/325 495/871/325
f 337/872/216 485/873/216 486/874/216 309/875/216 307/876/216 336/877/216
f 488/878/326 487/879/326 491/880/326 492/881/326
f 490/882/216 489/883/216 492/884/216 491/885/216
f 486/886/327 485/887/327 489/888/327 490/889/327
f 485/890/328 488/891/328 492/892/328 489/893/328
f 487/894/329 498/895/329 500/896/329 499/897/329 497/898/329 486/899/329 490/900/329 491/901/329
f 495/902/208 496/903/208 493/904/208 494/905/208
f 481/906/330 501/907/330 503/908/330 504/909/330 502/910/330 482/911/330 494/912/330 493/913/330
f 484/914/331 481/915/331 493/916/331 496/917/331
f 482/918/332 483/919/332 495/920/332 494/921/332
f 505/922/329 507/923/329 508/924/329 506/925/329
f 497/926/333 499/927/333 507/928/333 505/929/333
f 500/930/334 498/931/334 506/932/334 508/933/334
f 510/934/330 512/935/330 511/936/330 509/937/330
f 502/938/335 504/939/335 512/940/335 510/941/335
f 503/942/336 501/943/336 509/944/336 511/945/336
f 499/927/337 500/930/337 508/933/337 507/928/337
f 504/939/338 503/942/338 511/945/338 512/940/338
f 497/946/216 505/947/216 506/948/216 498/949/216 487/950/216 488/951/216 485/873/216 337/872/216 303/952/216 304/953/216 309/875/216 486/874/216
f 513/954/8 515/955/8 516/956/8 514/957/8
f 515/958/7 517/959/7 518/960/7 516/961/7
f 517/959/5 519/962/5 520/963/5 518/960/5
f 519/962/4 521/964/4 522/965/4 520/963/4
f 521/964/3 523/966/3 524/967/3 522/965/3
f 526/968/12 533/969/12 532/970/12 524/971/12
f 523/966/2 525/972/2 526/973/2 524/967/2
f 525/972/1 513/954/1 514/957/1 526/973/1
f 533/969/18 540/974/18 539/975/18 532/970/18
f 522/976/10 531/977/10 530/978/10 520/979/10
f 514/980/14 528/981/14 533/969/14 526/968/14
f 518/982/6 529/983/6 527/984/6 516/985/6
f 524/971/15 532/970/15 531/977/15 522/976/15
f 516/986/11 527/987/11 528/981/11 514/980/11
f 520/979/13 530/978/13 529/983/13 518/982/13
f 539/975/24 546/988/24 545/989/24 538/990/24
f 531/977/17 538/990/17 537/991/17 530/978/17
f 529/983/9 536/992/9 534/993/9 527/984/9
f 528/981/22 535/994/22 540/974/22 533/969/22
f 532/970/21 539/975/21 538/990/21 531/977/21
f 530/978/20 537/991/20 536/992/20 529/983/20
f 527/987/19 534/995/19 535/994/19 528/981/19
f 543/996/339 550/997/339 548/998/339 541/999/339
f 537/991/16 544/1000/16 543/1001/16 536/992/16
f 534/995/29 541/1002/29 542/1003/29 535/994/29
f 540/974/28 547/1004/28 546/988/28 539/975/28
f 538/990/27 545/989/27 544/1000/27 537/991/27
f 536/992/26 543/1001/26 541/1005/26 534/993/26
f 535/994/25 542/1003/25 547/1004/25 540/974/25
f 554/1006/340 561/1007/340 560/1008/340 553/1009/340
f 542/1010/341 549/1011/341 554/1012/341 547/1013/341
f 546/1014/342 553/1015/342 552/1016/342 545/1017/342
f 544/1018/343 551/1019/343 550/997/343 543/996/343
f 541/1020/344 548/1021/344 549/1011/344 542/1010/344
f 547/1013/345 554/1012/345 553/1015/345 546/1014/345
f 545/1017/346 552/1016/346 551/1019/346 544/1018/346
f 556/1022/347 563/1023/347 568/1024/347 561/1007/347
f 552/1025/348 559/1026/348 558/1027/348 551/1028/348
f 550/1029/349 557/1030/349 555/1031/349 548/1032/349
f 549/1033/350 556/1022/350 561/1007/350 554/1006/350
f 553/1009/351 560/1008/351 559/1026/351 552/1025/351
f 551/1028/352 558/1027/352 557/1030/352 550/1029/352
f 548/1034/353 555/1035/353 556/1022/353 549/1033/353
f 562/1036/354 564/1037/354 565/1038/354 566/1039/354 567/1040/354 568/1041/354 563/1042/354
f 560/1008/355 567/1043/355 566/1044/355 559/1026/355
f 558/1027/356 565/1045/356 564/1046/356 557/1030/356
f 555/1035/357 562/1047/357 563/1023/357 556/1022/357
f 561/1007/358 568/1024/358 567/1043/358 560/1008/358
f 559/1026/359 566/1044/359 565/1045/359 558/1027/359
f 557/1030/360 564/1046/360 562/1048/360 555/1031/360
f 570/1049/361 569/1050/361 571/1051/361 572/1052/361
f 572/1053/52 571/1054/52 575/1055/52 576/1056/52
f 576/1057/362 575/1058/362 573/1059/362 574/1060/362
f 578/1061/363 577/1062/363 579/1063/363 580/1064/363
f 569/1050/364 573/1059/364 575/1058/364 571/1051/364
f 574/1060/365 570/1049/365 572/1052/365 576/1057/365
f 580/1065/366 579/1066/366 583/1067/366 584/1068/366
f 584/1069/367 583/1070/367 581/1071/367 582/1072/367
f 577/1062/368 581/1071/368 583/1070/368 579/1063/368
f 582/1072/369 578/1061/369 580/1064/369 584/1069/369
f 586/1073/370 585/1074/370 587/1075/370 588/1076/370
f 588/1077/371 587/1078/371 591/1079/371 592/1080/371
f 592/1081/372 591/1082/372 589/1083/372 590/1084/372
f 585/1074/373 589/1083/373 591/1082/373 587/1075/373
f 590/1084/374 586/1073/374 588/1076/374 592/1081/374
f 596/1085/203 600/1086/203 597/1087/203 595/1088/203
f 593/1089/204 598/1090/204 599/1091/204 594/1092/204
f 604/1093/375 608/1094/375 605/1095/375 601/1096/375
f 600/1086/52 604/1093/52 601/1096/52 597/1087/52
f 598/1090/206 602/1097/206 603/1098/206 599/1091/206
f 602/1097/207 606/1099/207 607/1100/207 603/1098/207
f 595/1101/216 597/1102/216 601/1103/216 605/1104/216 609/1105/216 610/1106/216 606/1107/216 602/1108/216 598/1109/216 593/1110/216 614/1111/216 613/1112/216
f 610/1113/209 609/1114/209 612/1115/209 611/1116/209
f 619/1117/210 632/1118/210 633/1119/210 620/1120/210
f 608/1094/211 612/1115/211 609/1114/211 605/1095/211
f 606/1099/212 610/1113/212 611/1116/212 607/1100/212
f 614/1121/213 615/1122/213 616/1123/213 613/1124/213
f 595/1088/214 613/1124/214 616/1123/214 596/1085/214
f 594/1092/215 615/1122/215 614/1121/215 593/1089/215
f 594/1125/208 617/1126/208 618/1127/208 615/1128/208
f 615/1128/208 618/1127/208 619/1129/208 616/1130/208
f 616/1130/208 619/1129/208 620/1131/208 596/1132/208
f 596/1132/208 620/1131/208 621/1133/208 600/1134/208
f 600/1134/208 621/1133/208 622/1135/208 604/1136/208
f 604/1136/208 622/1135/208 623/1137/208 608/1138/208
f 608/1138/208 623/1137/208 624/1139/208 612/1140/208
f 612/1140/208 624/1139/208 625/1141/208 611/1142/208
f 611/1142/208 625/1141/208 626/1143/208 607/1144/208
f 607/1144/208 626/1143/208 627/1145/208 603/1146/208
f 603/1146/208 627/1145/208 628/1147/208 599/1148/208
f 599/1148/208 628/1147/208 617/1126/208 594/1125/208
f 629/1149/208 631/1150/208 640/1151/208 639/1152/208 638/1153/208 637/1154/208 636/1155/208 635/1156/208 634/1157/208 633/1158/208 632/1159/208 630/1160/208
f 626/1161/376 639/1162/376 640/1163/376 627/1164/376
f 617/1165/218 629/1166/218 630/1167/218 618/1168/218
f 623/1169/219 636/1170/219 637/1171/219 624/1172/219
f 620/1120/220 633/1119/220 634/1173/220 621/1174/220
f 627/1164/52 640/1163/52 631/1175/52 628/1176/52
f 628/1176/221 631/1175/221 629/1166/221 617/1165/221
f 624/1172/213 637/1171/213 638/1177/213 625/1178/213
f 621/1174/206 634/1173/206 635/1179/206 622/1180/206
f 618/1168/209 630/1167/209 632/1118/209 619/1117/209
f 625/1178/222 638/1177/222 639/1162/222 626/1161/222
f 622/1180/223 635/1179/223 636/1170/223 623/1169/223
f 647/1181/377 651/1182/377 652/1183/377 648/1184/377
f 660/1185/208 659/1186/208 657/1187/208 655/1188/208 642/1189/208 647/1190/208 648/1191/208 644/1192/208 656/1193/208 658/1194/208
f 643/1195/378 645/1196/378 649/1197/378 650/1198/378 646/1199/378 641/1200/378 654/1201/378 653/1202/378
f 644/1203/226 648/1184/226 645/1196/226 643/1195/226
f 641/1200/227 646/1199/227 647/1181/227 642/1204/227
f 650/1198/209 649/1197/209 652/1183/209 651/1182/209
f 648/1184/228 652/1183/228 649/1197/228 645/1196/228
f 646/1199/229 650/1198/229 651/1182/229 647/1181/229
f 643/1195/52 653/1202/52 656/1205/52 644/1203/52
f 642/1204/206 655/1206/206 654/1201/206 641/1200/206
f 659/1207/230 663/1208/230 661/1209/230 657/1210/230
f 660/1211/231 664/1212/231 663/1208/231 659/1207/231
f 660/1211/232 658/1213/232 662/1214/232 664/1212/232
f 662/1214/208 661/1209/208 663/1208/208 664/1212/208
